TCGA-CN-6010	PIK3CA	6.882
TCGA-CN-6010	NF2	2.2704
TCGA-CN-6010	EP300	2.1032
TCGA-CN-6010	KMT2D	2.4698
TCGA-CN-6010	AHDC1	2.7097
TCGA-CN-6011	NSD1	2.2449
TCGA-CN-6011	CREBBP	3.0208
TCGA-CN-6011	NOTCH1	2.9131
TCGA-CN-6011	CUL3	-2.1765
TCGA-CN-6011	KMT2D	4.14
TCGA-CN-6012	PIK3CA	2.3396
TCGA-CN-6012	CREBBP	2.0728
TCGA-CN-6012	EP300	2.0165
TCGA-CN-6012	NOTCH2	2.6813
TCGA-CN-6012	KMT2D	3.1313
TCGA-CN-6013	PIK3CA	3.353
TCGA-CN-6013	CYLD	2.131
TCGA-CN-6013	CREBBP	2.7452
TCGA-CN-6013	KMT2D	2.6555
TCGA-CN-6016	MYH9	2.6871
TCGA-CN-6017	JPH1	3.4461
TCGA-CN-6017	CD300E	3.3962
TCGA-CN-6017	KDF1	-2.0062
TCGA-CN-6018	PIK3CA	2.2345
TCGA-CN-6018	CD300E	5.1814
TCGA-CN-6018	TP53	2.2039
TCGA-CN-6019	THSD7A	3.5581
TCGA-CN-6019	KDF1	-2.1969
TCGA-CN-6020	PIK3CA	2.6246
TCGA-CN-6020	FAT1	3.0314
TCGA-CN-6020	EPHA2	2.2669
TCGA-CN-6021	PIK3CA	3.6201
TCGA-CN-6021	NFE2L2	5.7037
TCGA-CN-6021	CREBBP	2.3332
TCGA-CN-6022	NF2	2.3159
TCGA-CN-6022	CREBBP	2.3008
TCGA-CN-6023	PIK3CA	5.6562
TCGA-CN-6023	ARID2	2.5188
TCGA-CN-6023	NOTCH1	2.6029
TCGA-CN-6023	NOTCH2	8.7515
TCGA-CN-6024	JPH1	3.8925
TCGA-CQ-5323	PIK3CA	4.4962
TCGA-CQ-5323	NSD1	2.0346
TCGA-CQ-5323	NOTCH1	3.3712
TCGA-CQ-5324	HNRNPUL1	3.7879
TCGA-CQ-5329	PIK3CA	2.0695
TCGA-CQ-5332	PIK3CA	3.8634
TCGA-CQ-5332	NFE2L2	7.9322
TCGA-CQ-5332	CHEK2	3.0368
TCGA-CQ-5332	MAPK1	3.0916
TCGA-CQ-5334	UPF2	2.3086
TCGA-CV-5430	PIK3CA	3.12
TCGA-CV-5430	SCAF4	2.1011
TCGA-CV-5430	ARID2	2.0318
TCGA-CV-5430	NSD1	2.0069
TCGA-CV-5430	CREBBP	2.9778
TCGA-CV-5434	EP300	2.0837
TCGA-CV-5434	CUL3	-2.1105
TCGA-CV-5434	THSD7A	2.5613
TCGA-CV-5435	JPH1	3.209
TCGA-CV-5435	PIK3CA	6.6105
TCGA-CV-5435	PTEN	-2.0603
TCGA-CV-5435	NFE2L2	2.1008
TCGA-CV-5435	CUL3	-2.2924
TCGA-CV-5439	PTEN	2.3392
TCGA-CV-5439	CYLD	3.0903
TCGA-CV-5439	RASA1	-2.0926
TCGA-CV-5966	NF2	3.9094
TCGA-CV-5966	CUL3	-2.5206
TCGA-CV-5970	PIK3CA	4.2679
TCGA-CV-5970	FAT1	2.5344
TCGA-CV-5970	EPHA2	2.6841
TCGA-CV-5971	JPH1	5.7117
TCGA-CV-5971	CYLD	2.0679
TCGA-CV-5971	CUL3	2.9332
TCGA-CV-5971	THSD7A	4.9745
TCGA-CV-5971	KDF1	-2.7329
TCGA-CV-5973	KDF1	3.3803
TCGA-CV-5978	PIK3CA	4.9091
TCGA-CV-5978	MAPK1	3.1761
TCGA-CV-5979	AJUBA	2.9164
TCGA-CV-5979	MYH9	2.3988
TCGA-CV-5979	FAT1	2.831
TCGA-CV-6003	AJUBA	3.7554
TCGA-CV-6003	MYH9	2.7968
TCGA-CV-6433	JPH1	2.2793
TCGA-CV-6433	CDKN2A	5.4785
TCGA-CV-6433	HNRNPUL1	2.0533
TCGA-CV-6436	HRAS	3.9338
TCGA-CV-6441	PTEN	2.5406
TCGA-CV-6441	RAC1	2.4849
TCGA-CV-6441	CASP8	2.4267
TCGA-CV-6441	KDF1	2.5169
TCGA-BA-5152	SLC2A13	2.412
TCGA-BA-5152	RAC1	2.9113
TCGA-BA-6869	PTEN	-2.3229
TCGA-BA-6869	NFE2L2	2.378
TCGA-BA-6869	KDF1	2.5092
TCGA-BA-6870	AJUBA	2.5757
TCGA-BA-6871	PIK3CA	4.2556
TCGA-BA-6871	VAMP1	5.7107
TCGA-BA-6871	FNBP4	3.0009
TCGA-BA-6872	CUL3	-2.331
TCGA-BA-6873	PIK3CA	3.5646
TCGA-BA-6873	AJUBA	4.8232
TCGA-BA-6873	MYH9	2.5473
TCGA-BA-6873	TGFBR2	2.1205
TCGA-BA-6873	MAPK1	4.5668
TCGA-BB-4227	CUL3	-2.2435
TCGA-CN-4733	MYH9	2.1337
TCGA-CN-4733	THSD7A	2.8854
TCGA-CQ-5326	NF2	2.47
TCGA-CQ-5326	CD300E	5.0929
TCGA-CQ-5326	MYH9	3.6791
TCGA-CQ-5326	CASP8	2.1221
TCGA-CQ-5326	MAPK1	3.8198
TCGA-CQ-5331	CASP8	3.3542
TCGA-CR-6467	ARID2	3.3211
TCGA-CR-6467	NOTCH1	2.0645
TCGA-CR-6467	TP53	3.1541
TCGA-CR-6467	HNRNPUL1	2.6025
TCGA-CR-6470	PIK3CA	3.3453
TCGA-CR-6470	PTEN	-2.0823
TCGA-CR-6470	NOTCH1	3.3646
TCGA-CR-6470	TP53	2.6699
TCGA-CR-6470	AHDC1	2.6713
TCGA-CR-6471	NSD1	4.0201
TCGA-CR-6471	EP300	3.2732
TCGA-CR-6471	RB1	2.1004
TCGA-CR-6471	MAPK1	3.4955
TCGA-CR-6472	PIK3CA	2.6077
TCGA-CR-6472	NF2	3.5682
TCGA-CR-6472	SCAF4	2.8049
TCGA-CR-6472	ARID2	2.4256
TCGA-CR-6472	NOTCH2	3.9085
TCGA-CR-6472	CHEK2	2.6917
TCGA-CR-6472	ZNF750	3.8026
TCGA-CR-6472	HNRNPUL1	2.2656
TCGA-CR-6472	AHDC1	3.0093
TCGA-CR-6472	KDF1	2.6965
TCGA-CR-6474	PIK3CA	3.2315
TCGA-CR-6474	NF2	2.112
TCGA-CR-6474	MYH9	6.2541
TCGA-CR-6474	TGFBR2	2.1382
TCGA-CR-6474	RAC1	2.157
TCGA-CR-6474	FAT1	2.3456
TCGA-CR-6474	MAPK1	2.3827
TCGA-CR-6477	NFE2L2	2.1833
TCGA-CR-6477	CREBBP	2.2539
TCGA-CR-6477	MYH9	2.0102
TCGA-CR-6477	KDF1	-2.1202
TCGA-CR-6478	NF2	3.1741
TCGA-CR-6478	SCAF4	2.7247
TCGA-CR-6478	CD300E	4.1134
TCGA-CR-6480	PIK3CA	3.1917
TCGA-CR-6480	PTEN	-3.0415
TCGA-CR-6480	NFE2L2	2.0117
TCGA-CR-6480	NSD1	2.0355
TCGA-CR-6480	NOTCH2	2.9005
TCGA-CR-6480	EPHA2	3.2955
TCGA-CR-6481	CREBBP	2.189
TCGA-CR-6481	CUL3	2.2701
TCGA-CR-6482	ARID2	2.0995
TCGA-CR-6482	EP300	2.091
TCGA-CR-6482	THSD7A	2.1625
TCGA-CR-6487	PIK3CA	6.8213
TCGA-CR-6487	NOTCH1	4.468
TCGA-CR-6487	TP53	4.1461
TCGA-CR-6487	C12ORF42	2.1682
TCGA-CR-6487	HNRNPUL1	2.6613
TCGA-CR-6493	FAT1	2.1272
TCGA-CR-6493	MAPK1	12.4697
TCGA-D6-6515	PTEN	2.3218
TCGA-D6-6515	CYLD	2.5003
TCGA-D6-6515	MAPK1	3.3913
TCGA-D6-6516	ZNF750	2.3271
TCGA-D6-6517	PIK3CA	2.5659
TCGA-D6-6517	AJUBA	2.6739
TCGA-D6-6517	MYH9	2.3185
TCGA-DQ-5624	PIK3CA	2.482
TCGA-DQ-5624	EPHA2	2.1177
TCGA-DQ-5624	MAPK1	2.547
TCGA-DQ-5625	FBXW7	2.4572
TCGA-DQ-5629	PIK3CA	7.6693
TCGA-DQ-5629	NFE2L2	5.13
TCGA-DQ-5629	EP300	2.0868
TCGA-DQ-5629	CUL3	-3.0501
TCGA-DQ-5629	CHEK2	2.0615
TCGA-DQ-5631	PIK3CA	2.5726
TCGA-DQ-5631	AJUBA	2.5259
TCGA-DQ-5631	RB1	2.2059
TCGA-DQ-5631	FAT1	2.64
TCGA-DQ-5631	MAPK1	2.6911
TCGA-BA-6868	SCAF4	-2.1246
TCGA-BA-6868	MYH9	3.1989
TCGA-BA-6868	FAT1	2.1569
TCGA-CN-6988	PIK3CA	2.0227
TCGA-CN-6988	NFE2L2	2.2844
TCGA-CN-6988	CUL3	2.4525
TCGA-CN-6988	ZNF750	3.8396
TCGA-CN-6989	PIK3CA	7.7044
TCGA-CN-6989	NFE2L2	2.9344
TCGA-CN-6992	PIK3CA	9.4777
TCGA-CN-6992	NFE2L2	4.6436
TCGA-CN-6992	CREBBP	2.0421
TCGA-CN-6994	PIK3CA	3.1079
TCGA-CN-6994	ARID2	2.9984
TCGA-CN-6994	MYH9	2.4191
TCGA-CN-6994	EP300	2.6102
TCGA-CN-6994	KMT2D	3.0003
TCGA-CN-6994	PDZRN4	2.1116
TCGA-CN-6996	AJUBA	3.079
TCGA-CQ-6219	TP53	2.6679
TCGA-CQ-6222	JPH1	3.1424
TCGA-CQ-6223	PIK3CA	4.8137
TCGA-CQ-6223	CYLD	2.3514
TCGA-CQ-6223	RB1	2.369
TCGA-CQ-6223	EPHA2	3.7385
TCGA-CQ-6224	SLC2A13	2.1706
TCGA-CQ-6224	AJUBA	2.4416
TCGA-CQ-6224	MYH9	2.4767
TCGA-CQ-6225	RAC1	2.0432
TCGA-CQ-6225	FFAR2	2.0811
TCGA-CQ-6225	CASP8	4.5627
TCGA-CQ-6227	PIK3CA	3.5729
TCGA-CQ-6228	NFE2L2	5.9801
TCGA-CQ-6228	ARID2	5.3878
TCGA-CV-6933	NFE2L2	5.7893
TCGA-CV-6934	MYH9	2.4425
TCGA-CV-6934	TGFBR2	2.2258
TCGA-CV-6934	THSD7A	4.7824
TCGA-CV-6935	PIK3CA	2.6658
TCGA-CV-6935	TP53	2.2888
TCGA-CV-6938	CASP8	2.5267
TCGA-CV-6939	CYLD	2.7268
TCGA-CV-6940	TP53	2.8022
TCGA-CV-6941	PIK3CA	2.3991
TCGA-CV-6941	NF2	5.7861
TCGA-CV-6941	NFE2L2	3.4217
TCGA-CV-6941	CREBBP	2.1481
TCGA-CV-6941	AHDC1	2.7065
TCGA-CV-6943	MYH9	2.3185
TCGA-CV-6945	SCAF4	2.9818
TCGA-CV-6948	NF2	2.4811
TCGA-CV-6948	NSD1	2.1743
TCGA-CV-6948	CUL3	2.5304
TCGA-CV-6948	CHEK2	5.2446
TCGA-CV-6948	HNRNPUL1	2.5045
TCGA-CV-6950	MYH9	5.0129
TCGA-CV-6951	NFE2L2	2.8096
TCGA-CV-6951	TP53	2.139
TCGA-CV-6951	AHDC1	2.9822
TCGA-CV-6953	RAC1	4.6796
TCGA-CV-6953	ZNF750	2.7778
TCGA-CV-6953	EPHA2	3.5235
TCGA-CV-6953	RASA1	2.2701
TCGA-CV-6954	AJUBA	2.1882
TCGA-CV-6959	MYH9	2.4858
TCGA-CV-6959	TGFBR2	2.1054
TCGA-CV-6961	PIK3CA	5.077
TCGA-CV-6961	PTEN	-2.0822
TCGA-CV-6961	SCAF4	-2.006
TCGA-CV-6961	THSD7A	11.5634
TCGA-CV-6961	EPHA2	4.6632
TCGA-CV-6961	AHDC1	2.2676
TCGA-CV-6962	PIK3CA	3.1676
TCGA-CV-6962	PTEN	-2.3104
TCGA-CV-6962	TP53	2.1806
TCGA-CV-6962	THSD7A	3.8643
TCGA-D6-6823	AJUBA	5.2678
TCGA-D6-6823	CREBBP	2.0899
TCGA-D6-6823	UPF2	3.2797
TCGA-D6-6824	SLC2A13	2.1698
TCGA-D6-6824	CD300E	2.0852
TCGA-D6-6824	TGFBR2	2.1189
TCGA-D6-6824	THSD7A	4.0483
TCGA-D6-6825	PIK3CA	2.2855
TCGA-D6-6825	CYLD	2.2985
TCGA-D6-6825	NSD1	2.8325
TCGA-D6-6825	NOTCH2	2.5492
TCGA-D6-6825	UPF2	2.277
TCGA-D6-6825	HNRNPUL1	2.1306
TCGA-D6-6826	PIK3CA	2.692
TCGA-D6-6826	CD300E	2.5715
TCGA-D6-6826	MYH9	3.0413
TCGA-D6-6826	TGFBR2	2.6659
TCGA-D6-6826	KMT2D	2.6551
TCGA-D6-6826	CASP8	2.1091
TCGA-D6-6826	FAT1	2.994
TCGA-D6-6826	RASA1	3.6423
TCGA-D6-6827	RB1	-2.3191
TCGA-D6-6827	NOTCH1	6.2099
TCGA-D6-6827	FNBP4	2.1039
TCGA-BA-7269	NF2	2.5917
TCGA-BA-7269	SCAF4	-2.1273
TCGA-BA-7269	NSD1	-2.3786
TCGA-BA-7269	UPF2	-2.7169
TCGA-BA-7269	FNBP4	-2.1489
TCGA-CN-5370	CD300E	3.5645
TCGA-CN-6995	PIK3CA	2.418
TCGA-CN-6995	RAC1	2.3304
TCGA-CN-6997	PIK3CA	8.4767
TCGA-CN-6997	FNBP4	2.7488
TCGA-CN-6998	PIK3CA	2.6756
TCGA-CN-6998	PTEN	3.2551
TCGA-CN-6998	CYLD	3.2526
TCGA-CR-5247	PIK3CA	2.4353
TCGA-CR-5248	VAMP1	2.7715
TCGA-CR-5248	HNRNPUL1	3.5184
TCGA-CR-7364	ARID2	2.0897
TCGA-CR-7364	MAPK1	2.6499
TCGA-CR-7365	MYH9	2.5271
TCGA-CR-7365	MAPK1	2.1116
TCGA-CR-7365	RASA1	-2.0291
TCGA-CR-7367	CREBBP	2.0656
TCGA-CR-7367	HNRNPUL1	2.0155
TCGA-CR-7371	PIK3CA	4.8928
TCGA-CR-7371	NF2	3.9429
TCGA-CR-7371	ARID2	2.3434
TCGA-CR-7371	MAPK1	-2.1628
TCGA-CR-7372	NF2	2.1396
TCGA-CR-7372	AJUBA	2.7991
TCGA-CR-7372	MAPK1	3.3577
TCGA-CR-7373	CD300E	2.4444
TCGA-CR-7373	CUL3	-2.1031
TCGA-CR-7373	FAT1	2.3855
TCGA-CR-7374	PIK3CA	9.0341
TCGA-CR-7374	SCAF4	2.1315
TCGA-CR-7374	NFE2L2	2.2928
TCGA-CR-7374	ARID2	2.6457
TCGA-CR-7374	EP300	3.4414
TCGA-CR-7374	UPF2	2.9101
TCGA-CR-7374	KMT2D	2.8985
TCGA-CR-7374	C12ORF42	2.7221
TCGA-CR-7377	PIK3CA	2.0722
TCGA-CR-7380	AJUBA	2.0688
TCGA-CR-7385	PIK3CA	2.7808
TCGA-CR-7385	NOTCH2	2.0016
TCGA-CR-7385	HNRNPUL1	2.4099
TCGA-CR-7386	PIK3CA	2.718
TCGA-CR-7386	PTEN	2.2513
TCGA-CR-7388	PIK3CA	15.751
TCGA-CR-7388	ARID2	4.8555
TCGA-CR-7388	EP300	2.3997
TCGA-CR-7389	PIK3CA	3.1519
TCGA-CR-7389	NF2	3.1442
TCGA-CR-7389	NSD1	2.1346
TCGA-CR-7389	MYH9	3.5552
TCGA-CR-7389	FBXW7	5.5992
TCGA-CR-7389	EP300	2.4332
TCGA-CR-7389	HNRNPUL1	2.5696
TCGA-CR-7390	PIK3CA	3.2336
TCGA-CR-7390	NFE2L2	4.0281
TCGA-CR-7390	MAPK1	2.1308
TCGA-CR-7393	PTEN	2.489
TCGA-CR-7393	TGFBR2	2.2428
TCGA-CR-7393	NOTCH1	2.1294
TCGA-CR-7393	NOTCH2	2.3542
TCGA-CR-7393	THSD7A	4.2081
TCGA-CR-7394	EP300	2.9585
TCGA-CR-7394	KMT2D	2.0525
TCGA-CR-7397	PIK3CA	2.2348
TCGA-CR-7397	MYH9	2.9647
TCGA-CR-7398	JPH1	2.4191
TCGA-CR-7398	SLC2A13	4.8015
TCGA-CR-7398	SCAF4	3.4683
TCGA-CR-7398	CYLD	-2.0489
TCGA-CR-7398	CD300E	2.1503
TCGA-CR-7398	ARID2	2.3675
TCGA-CR-7398	CREBBP	4.4462
TCGA-CR-7398	VAMP1	10.918
TCGA-CR-7398	KMT2D	2.2681
TCGA-CR-7398	AHDC1	5.3783
TCGA-CR-7399	PTEN	3.1382
TCGA-CR-7399	UPF2	2.7908
TCGA-CR-7399	HNRNPUL1	2.0181
TCGA-CR-7401	NF2	2.7538
TCGA-CR-7401	MYH9	3.4094
TCGA-CR-7401	MAPK1	3.002
TCGA-CR-7402	PIK3CA	3.4277
TCGA-CR-7402	PTEN	2.3871
TCGA-CR-7402	NF2	2.6289
TCGA-CR-7402	SCAF4	2.251
TCGA-CR-7402	ARID2	2.0315
TCGA-CR-7402	CREBBP	2.2014
TCGA-CR-7402	TP53	2.1578
TCGA-CR-7402	CASP8	-2.0729
TCGA-CR-7402	MAPK1	2.1225
TCGA-CV-6937	PIK3CA	2.1199
TCGA-CV-6942	AJUBA	2.6682
TCGA-CV-6942	CD300E	2.1374
TCGA-CV-6942	FBXW7	2.2515
TCGA-CV-6942	TGFBR2	2.9557
TCGA-CV-6955	CUL3	2.8383
TCGA-CV-6955	ZNF750	2.6656
TCGA-CV-6955	EPHA2	2.0999
TCGA-CV-6955	AHDC1	2.4408
TCGA-CV-6956	SCAF4	-2.3931
TCGA-CV-6956	AJUBA	2.8491
TCGA-CV-6956	NSD1	-2.0199
TCGA-CV-6956	KDF1	2.7957
TCGA-CV-6960	PTEN	-2.3834
TCGA-CV-6960	FAT1	2.406
TCGA-CV-7090	AJUBA	4.0881
TCGA-CV-7090	MYH9	4.9163
TCGA-CV-7090	EP300	2.0382
TCGA-CV-7090	FAT1	2.812
TCGA-CV-7090	MAPK1	2.4017
TCGA-CV-7091	PIK3CA	2.8868
TCGA-CV-7091	PTEN	3.2101
TCGA-CV-7091	ARID2	2.06
TCGA-CV-7095	CUL3	-2.5822
TCGA-CV-7095	CASP8	2.085
TCGA-CV-7097	CD300E	2.9296
TCGA-CV-7097	RB1	2.6108
TCGA-CV-7100	PIK3CA	3.8804
TCGA-CV-7100	NOTCH1	3.9806
TCGA-CV-7100	TP53	2.021
TCGA-CV-7101	PIK3CA	2.5408
TCGA-CV-7102	MYH9	2.3637
TCGA-CV-7103	PIK3CA	16.1974
TCGA-CV-7103	NFE2L2	2.1932
TCGA-CV-7103	THSD7A	3.6114
TCGA-CV-7103	C12ORF42	3.5824
TCGA-CV-7103	HNRNPUL1	2.0196
TCGA-CV-7177	PIK3CA	2.606
TCGA-CV-7177	FBXW7	-2.3329
TCGA-CV-7178	RAC1	2.9124
TCGA-CV-7235	NOTCH1	3.0117
TCGA-CV-7236	PIK3CA	3.1137
TCGA-CV-7236	NF2	2.8854
TCGA-CV-7236	MYH9	2.4689
TCGA-CV-7238	PTEN	-2.0785
TCGA-CV-7242	NFE2L2	4.8314
TCGA-CV-7242	RB1	-2.0245
TCGA-CV-7242	AHDC1	2.8856
TCGA-CV-7243	PIK3CA	2.248
TCGA-CV-7243	HNRNPUL1	2.6122
TCGA-CV-7245	NF2	2.3787
TCGA-CV-7245	MYH9	3.9804
TCGA-CV-7245	FAT1	3.1702
TCGA-CV-7245	EPHA2	2.775
TCGA-CV-7245	MAPK1	2.3119
TCGA-CV-7247	RB1	2.0502
TCGA-CV-7247	HNRNPUL1	2.4672
TCGA-CV-7248	PIK3CA	3.1485
TCGA-CV-7250	NFE2L2	3.0833
TCGA-CV-7250	CUL3	2.9137
TCGA-CV-7250	CASP8	2.4374
TCGA-CV-7250	EPHA2	2.194
TCGA-CV-7252	PIK3CA	2.4907
TCGA-CV-7252	SLC2A13	2.0108
TCGA-CV-7253	PIK3CA	3.2495
TCGA-CV-7253	SCAF4	2.2853
TCGA-CV-7253	AJUBA	5.8935
TCGA-CV-7253	NFE2L2	2.9742
TCGA-CV-7253	FAT1	3.4085
TCGA-CV-7253	EPHA2	2.9584
TCGA-CV-7253	HNRNPUL1	3.1446
TCGA-CV-7254	NFE2L2	2.0358
TCGA-CV-7254	UPF2	3.3141
TCGA-CV-7254	THSD7A	3.0925
TCGA-CV-7254	KDF1	-2.1772
TCGA-CV-7255	AJUBA	5.6414
TCGA-CV-7255	FAT1	2.8339
TCGA-CV-7261	PIK3CA	4.5166
TCGA-CV-7261	NFE2L2	4.1681
TCGA-CV-7261	CUL3	-2.2135
TCGA-CV-7263	NFE2L2	3.218
TCGA-CV-7263	CUL3	2.0089
TCGA-CX-7082	PIK3CA	6.5446
TCGA-CX-7082	NFE2L2	2.4954
TCGA-CX-7082	NOTCH2	7.9457
TCGA-CX-7082	HNRNPUL1	2.0629
TCGA-CX-7085	CD300E	8.6803
TCGA-CX-7085	FFAR2	2.4426
TCGA-CX-7085	THSD7A	5.689
TCGA-CX-7085	KDF1	-2.1028
TCGA-CX-7219	EP300	2.2495
TCGA-CX-7219	CUL3	2.0706
TCGA-CX-7219	CASP8	2.616
TCGA-HD-7229	PIK3CA	2.9591
TCGA-HD-7229	RAC1	6.1538
TCGA-HD-7229	CASP8	2.1569
TCGA-BB-4217	C12ORF42	2.5458
TCGA-CQ-6221	PIK3CA	2.1155
TCGA-CQ-6221	NF2	9.3219
TCGA-CQ-6221	SLC2A13	2.5253
TCGA-CQ-6221	MYH9	3.1617
TCGA-CQ-6221	NOTCH2	3.3978
TCGA-CQ-6221	CHEK2	2.4538
TCGA-CQ-6221	UPF2	-2.0133
TCGA-CQ-6221	THSD7A	2.4673
TCGA-CQ-6221	PDZRN4	7.1103
TCGA-CQ-6221	HNRNPUL1	2.7053
TCGA-CQ-6221	KDF1	-3.3584
TCGA-CQ-7065	PIK3CA	3.2499
TCGA-CQ-7065	AJUBA	4.1353
TCGA-CQ-7065	FBXW7	2.7872
TCGA-CQ-7068	PTEN	3.0142
TCGA-CQ-7068	NOTCH1	3.7819
TCGA-CQ-7068	CASP8	2.2625
TCGA-CR-6488	PIK3CA	2.5115
TCGA-CR-6488	AJUBA	3.1123
TCGA-CR-6488	MAPK1	4.5981
TCGA-CR-6492	PIK3CA	2.1056
TCGA-CV-7406	PIK3CA	3.6263
TCGA-CV-7406	UPF2	2.3146
TCGA-CV-7406	HNRNPUL1	3.8552
TCGA-CV-7407	PIK3CA	14.207
TCGA-CV-7407	NFE2L2	5.5546
TCGA-CV-7407	NOTCH1	2.4861
TCGA-CV-7407	CASP8	2.2967
TCGA-CV-7407	FAT1	2.4904
TCGA-CV-7410	PIK3CA	2.28
TCGA-CV-7410	C12ORF42	3.0153
TCGA-CV-7411	MYH9	2.4643
TCGA-CV-7411	ZNF750	2.8363
TCGA-CV-7411	AHDC1	2.9873
TCGA-CV-7413	C12ORF42	2.7153
TCGA-CV-7414	PTEN	-3.0226
TCGA-CV-7414	SCAF4	3.0741
TCGA-CV-7414	CUL3	2.5092
TCGA-CV-7414	TP53	3.1973
TCGA-CV-7414	HNRNPUL1	2.7884
TCGA-CV-7414	AHDC1	3.8793
TCGA-CV-7414	KDF1	2.5474
TCGA-CV-7415	PIK3CA	2.3498
TCGA-CV-7416	PIK3CA	2.3968
TCGA-CV-7416	CUL3	-2.0869
TCGA-CV-7418	PIK3CA	2.7224
TCGA-CV-7418	OR2T35	11.3408
TCGA-CV-7418	THSD7A	4.6453
TCGA-CV-7418	FAT1	2.7351
TCGA-CV-7418	FNBP4	2.8132
TCGA-CV-7421	NF2	-3.1636
TCGA-CV-7421	MYH9	2.3803
TCGA-CV-7421	MAPK1	4.1813
TCGA-CV-7422	PIK3CA	4.796
TCGA-CV-7422	NFE2L2	8.1769
TCGA-CV-7422	EP300	2.0161
TCGA-CV-7422	CUL3	-3.0144
TCGA-CV-7422	CHEK2	2.0097
TCGA-CV-7423	NOTCH2	2.9854
TCGA-CV-7423	CASP8	2.3333
TCGA-CV-7423	MAPK1	3.224
TCGA-CV-7424	PIK3CA	3.81
TCGA-CV-7424	NFE2L2	5.8333
TCGA-CV-7424	THSD7A	11.7182
TCGA-CV-7425	PTEN	2.3047
TCGA-CV-7425	FFAR2	3.1587
TCGA-CV-7425	ZNF750	2.002
TCGA-CV-7425	CASP8	3.3698
TCGA-CV-7427	CASP8	3.0915
TCGA-CV-7427	RASA1	2.0092
TCGA-CX-7086	CREBBP	2.2924
TCGA-CX-7086	EP300	2.292
TCGA-CX-7086	CUL3	2.5693
TCGA-CX-7086	EPHA2	2.0226
TCGA-CX-7086	MAPK1	2.5938
TCGA-DQ-7588	MYH9	2.1297
TCGA-DQ-7591	SCAF4	2.793
TCGA-DQ-7591	ARID2	3.0005
TCGA-DQ-7591	RAC1	2.8894
TCGA-DQ-7591	VAMP1	12.2777
TCGA-DQ-7591	NOTCH1	3.5052
TCGA-DQ-7591	UPF2	2.2173
TCGA-DQ-7591	FNBP4	2.7243
TCGA-DQ-7591	HNRNPUL1	2.2429
TCGA-DQ-7591	AHDC1	3.8519
TCGA-DQ-7592	PIK3CA	2.2617
TCGA-DQ-7592	AJUBA	3.1804
TCGA-DQ-7592	CYLD	2.4321
TCGA-DQ-7592	HNRNPUL1	2.3327
TCGA-H7-7774	FBXW7	5.3051
TCGA-H7-7774	CUL3	2.5575
TCGA-H7-7774	ZNF750	2.7809
TCGA-H7-7774	AHDC1	3.2356
TCGA-HD-7753	PIK3CA	2.0766
TCGA-HD-7753	NF2	2.4399
TCGA-HD-7753	MYH9	4.3464
TCGA-HD-7753	FBXW7	3.2021
TCGA-HD-7753	FAT1	3.8399
TCGA-HD-7753	MAPK1	2.3789
TCGA-HD-7754	PIK3CA	3.4785
TCGA-HD-7754	ARID2	2.9207
TCGA-HD-7754	NOTCH2	2.8581
TCGA-IQ-7630	NF2	-2.9923
TCGA-IQ-7630	FNBP4	2.2527
TCGA-IQ-7631	NF2	2.0834
TCGA-IQ-7631	UPF2	-2.0106
TCGA-IQ-7632	ZNF750	2.2198
TCGA-IQ-7632	PDZRN4	3.9795
TCGA-CR-7368	PIK3CA	3.6529
TCGA-CR-7368	ARID2	2.2215
TCGA-CR-7368	FBXW7	2.4087
TCGA-CR-7368	RB1	4.0804
TCGA-CR-7368	NOTCH1	5.361
TCGA-CR-7368	CUL3	2.0798
TCGA-CR-7368	ZNF750	6.7074
TCGA-CR-7368	EPHA2	2.7688
TCGA-CR-7368	HNRNPUL1	2.398
TCGA-CR-7368	AHDC1	2.7261
TCGA-CR-7369	PIK3CA	3.7732
TCGA-CR-7369	RB1	3.3496
TCGA-CR-7369	CUL3	2.0485
TCGA-CR-7370	PIK3CA	17.382
TCGA-CR-7370	AJUBA	2.3154
TCGA-CR-7370	NFE2L2	4.928
TCGA-CR-7370	ARID2	2.6962
TCGA-CR-7370	CREBBP	3.2567
TCGA-CR-7370	AHDC1	5.7886
TCGA-CR-7376	PIK3CA	2.1849
TCGA-CR-7376	CYLD	2.0579
TCGA-CR-7376	NOTCH2	2.8357
TCGA-CR-7376	THSD7A	2.7761
TCGA-CR-7376	KMT2D	2.0902
TCGA-CR-7376	PDZRN4	3.29
TCGA-CR-7382	NF2	3.5462
TCGA-CR-7382	CD300E	4.5522
TCGA-CR-7382	TGFBR2	3.8107
TCGA-CR-7382	HRAS	2.5001
TCGA-CR-7382	THSD7A	3.9176
TCGA-CR-7382	KMT2D	2.1826
TCGA-CR-7382	CASP8	2.3032
TCGA-CR-7382	RASA1	2.8946
TCGA-CR-7404	PIK3CA	3.5332
TCGA-CR-7404	VAMP1	2.0787
TCGA-CR-7404	NOTCH1	2.2812
TCGA-CR-7404	UPF2	2.0716
TCGA-CR-7404	HNRNPUL1	3.2902
TCGA-CV-7428	PTEN	2.4175
TCGA-CV-7429	NF2	2.5205
TCGA-CV-7429	CASP8	2.5785
TCGA-CV-7429	KDF1	-3.3257
TCGA-CV-7430	PIK3CA	10.3481
TCGA-CV-7430	ARID2	2.6912
TCGA-CV-7430	KMT2D	2.027
TCGA-CV-7432	FAT1	2.4064
TCGA-CV-7433	PIK3CA	3.0923
TCGA-CV-7434	PIK3CA	2.2347
TCGA-CV-7434	FAT1	3.0955
TCGA-CV-7435	PIK3CA	5.698
TCGA-CV-7435	MAPK1	2.6096
TCGA-CV-7435	HNRNPUL1	2.6898
TCGA-CV-7437	PIK3CA	15.4431
TCGA-CV-7437	C12ORF42	2.3892
TCGA-CV-7437	HNRNPUL1	2.8304
TCGA-CV-7440	NF2	3.5113
TCGA-CV-7440	ARID2	2.1966
TCGA-CV-7440	CREBBP	2.183
TCGA-CV-7440	TGFBR2	2.4154
TCGA-CV-7440	FAT1	2.3951
TCGA-CV-7446	PIK3CA	11.5638
TCGA-CV-7446	PTEN	2.156
TCGA-CV-7446	NFE2L2	9.2807
TCGA-CV-7446	ARID2	5.6982
TCGA-CV-7446	EP300	5.5922
TCGA-CV-7446	CUL3	4.4158
TCGA-CV-7446	KMT2D	3.7799
TCGA-CV-7446	FNBP4	4.4703
TCGA-CV-7568	PTEN	3.0019
TCGA-CV-7568	AJUBA	3.0389
TCGA-CV-7568	FBXW7	6.0462
TCGA-CV-7568	UPF2	3.6927
TCGA-CV-7568	FNBP4	3.8155
TCGA-CV-7568	RASA1	2.2733
TCGA-F7-7848	NFE2L2	2.3702
TCGA-F7-7848	UPF2	4.8595
TCGA-HD-7831	PIK3CA	2.5183
TCGA-HD-7831	PTEN	4.1542
TCGA-HD-7831	NF2	2.2009
TCGA-HD-7831	MYH9	6.5519
TCGA-HD-7831	MAPK1	2.445
TCGA-HD-7832	RB1	9.5382
TCGA-HD-7832	NOTCH1	10.0467
TCGA-HD-7832	TP53	2.0634
TCGA-HD-7832	FAT1	2.647
TCGA-BB-7861	PIK3CA	3.7801
TCGA-BB-7861	PTEN	-2.3025
TCGA-BB-7861	CYLD	2.6725
TCGA-BB-7861	NSD1	2.3414
TCGA-BB-7861	VAMP1	4.1916
TCGA-BB-7861	UPF2	2.348
TCGA-BB-7861	C12ORF42	3.6541
TCGA-BB-7862	KDF1	-2.0028
TCGA-BB-7863	PTEN	2.3697
TCGA-BB-7863	RAC1	3.3025
TCGA-BB-7864	PIK3CA	3.7884
TCGA-BB-7864	NFE2L2	2.5624
TCGA-BB-7864	NSD1	-2.5019
TCGA-BB-7864	RB1	-2.5175
TCGA-BB-7864	UPF2	2.413
TCGA-BB-7864	AHDC1	2.2644
TCGA-BB-7866	RAC1	2.0647
TCGA-BB-7866	UPF2	2.869
TCGA-BB-7866	HNRNPUL1	2.0516
TCGA-BB-7870	NSD1	-2.0478
TCGA-BB-7870	CHEK2	7.2936
TCGA-BB-7870	KDF1	2.2818
TCGA-BB-7871	PIK3CA	5.333
TCGA-BB-7872	PIK3CA	3.7057
TCGA-BB-7872	PTEN	2.2039
TCGA-BB-7872	FBXW7	2.7429
TCGA-CQ-7067	PIK3CA	3.2342
TCGA-DQ-7589	PIK3CA	2.4515
TCGA-DQ-7589	NF2	2.039
TCGA-DQ-7589	MAPK1	2.7303
TCGA-DQ-7590	PTEN	-2.354
TCGA-DQ-7590	NOTCH1	2.8689
TCGA-DQ-7593	VAMP1	3.7942
TCGA-DQ-7593	C12ORF42	2.4798
TCGA-DQ-7594	FFAR2	2.0325
TCGA-DQ-7595	NFE2L2	2.0085
TCGA-DQ-7595	MAPK1	2.0385
TCGA-DQ-7596	PTEN	-2.4646
TCGA-DQ-7596	RAC1	2.8347
TCGA-DQ-7596	NOTCH2	2.6898
TCGA-DQ-7596	CUL3	2.0352
TCGA-DQ-7596	EPHA2	2.2918
TCGA-HL-7533	PTEN	2.3435
TCGA-HL-7533	HNRNPUL1	2.0111
TCGA-HL-7533	KDF1	2.5756
TCGA-BB-8596	THSD7A	2.5491
TCGA-BB-8601	PTEN	-2.2006
TCGA-BB-8601	CYLD	-2.1679
TCGA-BB-8601	CHEK2	3.7173
TCGA-CQ-7069	PIK3CA	4.9116
TCGA-CQ-7069	MYH9	2.8285
TCGA-CQ-7069	FAT1	3.2123
TCGA-D6-8568	FAT1	2.7863
TCGA-D6-8569	CASP8	3.8112
TCGA-F7-8298	FAT1	2.2423
TCGA-F7-8298	RASA1	-2.1635
TCGA-H7-8501	CASP8	2.3517
TCGA-H7-8502	PIK3CA	2.6598
TCGA-H7-8502	FAT1	2.3284
TCGA-HD-8224	JPH1	2.297
TCGA-HD-8224	PIK3CA	4.1875
TCGA-HD-8224	NF2	-2.2807
TCGA-HD-8314	JPH1	3.5987
TCGA-HD-8314	PIK3CA	3.5304
TCGA-HD-8314	SCAF4	2.5717
TCGA-HD-8314	VAMP1	2.7788
TCGA-HD-8634	ZNF750	2.2129
TCGA-HD-8634	RASA1	2.1794
TCGA-HD-8635	AJUBA	2.7409
TCGA-HD-8635	MAPK1	2.3895
TCGA-C9-A480	MAPK1	7.2778
TCGA-CN-A497	SLC2A13	2.083
TCGA-CN-A497	CREBBP	2.3922
TCGA-CN-A497	VAMP1	3.5514
TCGA-CN-A498	PIK3CA	2.0899
TCGA-CN-A498	AHDC1	2.3601
TCGA-CN-A499	PIK3CA	2.7492
TCGA-CN-A499	NOTCH1	5.2305
TCGA-CN-A49A	PIK3CA	4.2663
TCGA-CN-A49A	PDZRN4	2.5183
TCGA-CN-A49C	CDKN2A	2.1847
TCGA-CV-A45O	CYLD	4.1792
TCGA-CV-A45O	FFAR2	2.9974
TCGA-CV-A45O	ZNF750	3.5373
TCGA-CV-A45O	FNBP4	2.2588
TCGA-CV-A45O	EPHA2	3.9798
TCGA-CV-A45P	ZNF750	2.5183
TCGA-CV-A45Q	PIK3CA	-2.3396
TCGA-CV-A45Q	SCAF4	-2.3477
TCGA-CV-A45Q	NSD1	-2.0042
TCGA-CV-A45Q	CREBBP	-2.0335
TCGA-CV-A45Q	RB1	-2.2117
TCGA-CV-A45Q	RAC1	3.8707
TCGA-CV-A45Q	HRAS	3.5331
TCGA-CV-A45Q	UPF2	-2.5177
TCGA-CV-A45Q	MAPK1	-2.6806
TCGA-CV-A45Q	RASA1	-2.1511
TCGA-CV-A45R	C12ORF42	4.1812
TCGA-CV-A45U	PIK3CA	9.5266
TCGA-CV-A45U	NFE2L2	2.0011
TCGA-CV-A45U	RB1	-2.0993
TCGA-HD-A4C1	RASA1	2.0269
TCGA-CQ-A4C6	AJUBA	3.8444
TCGA-CQ-A4C9	NFE2L2	2.6112
TCGA-CQ-A4CA	NF2	2.0557
TCGA-CQ-A4CB	NF2	2.2016
TCGA-CQ-A4CD	CASP8	3.3045
TCGA-CV-A45V	RAC1	2.8934
TCGA-CV-A45V	ZNF750	3.1302
TCGA-CV-A45V	EPHA2	3.0061
TCGA-CV-A45W	PIK3CA	2.4243
TCGA-CV-A45W	NFE2L2	2.5905
TCGA-CV-A45W	VAMP1	2.7348
TCGA-CV-A45X	RAC1	7.4302
TCGA-CV-A45X	ZNF750	2.1063
TCGA-CV-A45X	EPHA2	2.7785
TCGA-CV-A45Y	NF2	2.7072
TCGA-CV-A45Y	MYH9	4.3291
TCGA-CV-A45Z	NFE2L2	4.0007
TCGA-CV-A45Z	CHEK2	2.5393
TCGA-CV-A45Z	CASP8	5.9705
TCGA-CV-A460	PTEN	-2.2212
TCGA-CV-A460	RAC1	2.6149
TCGA-CV-A460	VAMP1	2.0496
TCGA-CV-A460	HNRNPUL1	2.5569
TCGA-CX-A4AQ	VAMP1	3.0638
TCGA-CX-A4AQ	C12ORF42	3.4356
TCGA-D6-A4Z9	NF2	-2.6927
TCGA-BA-A4IF	NFE2L2	2.0084
TCGA-BA-A4IF	NSD1	2.3848
TCGA-BA-A4IF	RB1	2.2085
TCGA-BA-A4IF	TP53	2.2901
TCGA-BA-A4IG	PIK3CA	2.3608
TCGA-BA-A4IG	PTEN	-2.9262
TCGA-BA-A4IG	NFE2L2	2.673
TCGA-BA-A4IG	TP53	2.033
TCGA-BA-A4IH	PIK3CA	2.3893
TCGA-BA-A4IH	CHEK2	2.4571
TCGA-BA-A4II	PIK3CA	3.6235
TCGA-CQ-A4CE	FFAR2	2.45
TCGA-CQ-A4CG	PIK3CA	2.9896
TCGA-CQ-A4CG	FNBP4	2.8179
TCGA-CQ-A4CH	RB1	2.0882
TCGA-CQ-A4CH	MAPK1	2.9043
TCGA-CQ-A4CH	RASA1	2.1502
TCGA-CQ-A4CI	CHEK2	2.9943
TCGA-CV-A461	NFE2L2	2.8701
TCGA-CV-A463	RB1	2.2475
TCGA-CV-A464	FBXW7	2.0465
TCGA-F7-A50G	PTEN	3.166
TCGA-F7-A50G	FBXW7	2.2021
TCGA-MT-A51X	AJUBA	2.8068
TCGA-BB-A5HU	MYH9	4.5524
TCGA-BB-A5HU	MAPK1	3.0817
TCGA-BB-A5HY	PIK3CA	2.6373
TCGA-BB-A5HY	EP300	6.0473
TCGA-BB-A5HZ	UPF2	3.1752
TCGA-CN-A63V	SCAF4	-2.6438
TCGA-CN-A63V	RASA1	2.2515
TCGA-F7-A50I	C12ORF42	3.8842
TCGA-F7-A50J	HRAS	2.3917
TCGA-F7-A50J	FNBP4	2.3187
TCGA-F7-A61V	PIK3CA	2.9248
TCGA-F7-A61V	NFE2L2	2.2399
TCGA-F7-A61V	KDF1	2.2086
TCGA-F7-A61W	AJUBA	2.7362
TCGA-F7-A61W	FBXW7	2.7851
TCGA-F7-A620	CUL3	-2.0045
TCGA-F7-A622	RAC1	3.8341
TCGA-F7-A623	CASP8	5.939
TCGA-F7-A623	HNRNPUL1	4.0471
TCGA-HD-A633	RAC1	2.992
TCGA-HD-A634	SLC2A13	9.4623
TCGA-HD-A634	CYLD	-2.0297
TCGA-HD-A634	MYH9	-2.0904
TCGA-HD-A634	FBXW7	-2.1159
TCGA-HD-A634	CHEK2	3.1491
TCGA-P3-A5Q5	VAMP1	2.5934
TCGA-P3-A5Q5	CUL3	2.1137
TCGA-P3-A5Q5	KDF1	3.2517
TCGA-P3-A5Q6	PIK3CA	10.2106
TCGA-P3-A5QA	NF2	2.7016
TCGA-P3-A5QE	PTEN	-3.1601
TCGA-P3-A5QE	OR2T35	10.6663
TCGA-P3-A5QE	VAMP1	3.4069
TCGA-P3-A5QE	UPF2	4.298
TCGA-P3-A5QE	FNBP4	3.281
TCGA-P3-A5QF	CHEK2	4.0793
TCGA-BA-A6DJ	FFAR2	2.3997
TCGA-BA-A6DJ	CUL3	-2.131
TCGA-BA-A6DJ	EPHA2	2.0402
TCGA-CN-A63U	PTEN	-2.1544
TCGA-CN-A63U	SCAF4	2.4688
TCGA-CN-A63U	CYLD	-2.1131
TCGA-CN-A63U	VAMP1	2.1691
TCGA-CN-A63U	CHEK2	4.5363
TCGA-CN-A641	SCAF4	3.2141
TCGA-CN-A641	RB1	-2.0805
TCGA-CN-A641	ZNF750	2.6729
TCGA-CQ-7071	CASP8	2.0362
TCGA-CQ-7072	PIK3CA	2.8578
TCGA-CQ-7072	SLC2A13	3.3701
TCGA-CQ-7072	VAMP1	2.4882
TCGA-CQ-7072	MAPK1	2.3488
TCGA-F7-A624	NF2	2.4205
TCGA-F7-A624	CREBBP	-2.1714
TCGA-F7-A624	KDF1	-3.3463
TCGA-H7-A6C4	OR2T35	14.5011
TCGA-IQ-A61G	NFE2L2	2.4629
TCGA-IQ-A61H	PIK3CA	3.0086
TCGA-IQ-A61H	CHEK2	2.5929
TCGA-IQ-A61H	FNBP4	2.0259
TCGA-IQ-A61I	RAC1	4.3916
TCGA-IQ-A61O	NF2	3.6381
TCGA-IQ-A61O	MYH9	4.5031
TCGA-IQ-A61O	KDF1	-2.9915
TCGA-KU-A66T	RAC1	2.2312
TCGA-MT-A67D	RAC1	3.0841
TCGA-MT-A67D	FFAR2	3.0768
TCGA-MT-A67F	NF2	-2.0183
TCGA-MT-A67F	CYLD	2.8716
TCGA-MT-A67F	FFAR2	4.0776
TCGA-MT-A67F	ZNF750	2.0781
TCGA-MT-A67F	CASP8	3.5418
TCGA-MT-A67F	EPHA2	3.4592
TCGA-MT-A67F	RASA1	3.6476
TCGA-QK-A64Z	PIK3CA	4.3436
TCGA-QK-A64Z	NOTCH1	2.0509
TCGA-BA-A6D8	NF2	2.5585
TCGA-BA-A6D8	SCAF4	-2.2952
TCGA-BA-A6D8	CREBBP	-2.2935
TCGA-BA-A6D8	RB1	-2.3388
TCGA-BA-A6D8	CUL3	-2.2627
TCGA-BA-A6D8	HRAS	2.2267
TCGA-BA-A6D8	UPF2	-2.7301
TCGA-BA-A6D8	CASP8	-2.1919
TCGA-BA-A6D8	RASA1	-2.342
TCGA-BA-A6DA	SCAF4	-2.3502
TCGA-BA-A6DA	CDKN2A	3.5805
TCGA-BA-A6DA	NSD1	-2.0642
TCGA-BA-A6DA	RB1	-2.1347
TCGA-BA-A6DA	RAC1	2.3492
TCGA-BA-A6DA	FFAR2	9.4816
TCGA-BA-A6DA	CUL3	-2.0773
TCGA-BA-A6DA	HNRNPUL1	-2.376
TCGA-BA-A6DA	AHDC1	3.9996
TCGA-BA-A6DE	AJUBA	2.3233
TCGA-BA-A6DE	FFAR2	4.7319
TCGA-BA-A6DE	MAPK1	2.2591
TCGA-BA-A6DE	KDF1	3.0863
TCGA-CV-A6JD	UPF2	-2.1912
TCGA-CV-A6JE	NF2	2.0671
TCGA-CV-A6JE	RB1	-2.1154
TCGA-CV-A6JE	CUL3	-2.3918
TCGA-CV-A6JE	HRAS	3.7412
TCGA-CV-A6JE	UPF2	-2.4626
TCGA-CV-A6JE	MAPK1	-2.0158
TCGA-CV-A6JE	HNRNPUL1	-2.2167
TCGA-CV-A6JE	KDF1	2.2115
TCGA-CV-A6JE	RASA1	-2.0985
TCGA-CV-A6JM	SCAF4	-2.0754
TCGA-CV-A6JM	CYLD	-2.0058
TCGA-CV-A6JM	ARID2	-2.0316
TCGA-CV-A6JM	NSD1	-2.2143
TCGA-CV-A6JM	EP300	-2.2071
TCGA-CV-A6JM	RB1	-2.2774
TCGA-CV-A6JM	RAC1	4.4641
TCGA-CV-A6JM	VAMP1	2.3372
TCGA-CV-A6JM	CUL3	-2.7141
TCGA-CV-A6JM	HRAS	3.6914
TCGA-CV-A6JM	CHEK2	2.7579
TCGA-CV-A6JM	UPF2	-2.4666
TCGA-CV-A6JM	RASA1	-2.0271
TCGA-CV-A6JN	PTEN	-2.8825
TCGA-CV-A6JN	EP300	-2.0264
TCGA-CV-A6JN	RB1	-2.0479
TCGA-CV-A6JN	HRAS	5.8279
TCGA-CV-A6JN	HNRNPUL1	-2.5628
TCGA-CV-A6JT	RAC1	3.1834
TCGA-CV-A6JT	UPF2	-2.3139
TCGA-CV-A6JT	C12ORF42	9.0003
TCGA-CV-A6JT	HNRNPUL1	-2.4034
TCGA-CV-A6JU	NF2	2.1608
TCGA-CV-A6JU	SCAF4	-2.0077
TCGA-CV-A6JU	NSD1	-2.3376
TCGA-CV-A6JU	EP300	-2.0439
TCGA-CV-A6JU	HNRNPUL1	-2.0242
TCGA-CV-A6JY	ZNF750	3.2284
TCGA-CV-A6K1	RAC1	3.3279
TCGA-CV-A6K1	FFAR2	2.7628
TCGA-CV-A6K1	HRAS	3.6254
TCGA-CV-A6K1	CHEK2	2.6042
TCGA-CV-A6K1	UPF2	-2.0358
TCGA-CV-A6K1	HNRNPUL1	-2.6343
TCGA-CV-A6K1	RASA1	-2.3212
TCGA-CV-A6K2	SLC2A13	3.3072
TCGA-CV-A6K2	TGFBR2	2.9823
TCGA-CV-A6K2	PDZRN4	3.1009
TCGA-D6-A6EK	SCAF4	-2.0878
TCGA-D6-A6EK	CREBBP	-2.0497
TCGA-D6-A6EK	EP300	-2.0133
TCGA-D6-A6EK	RAC1	4.0053
TCGA-D6-A6EK	HRAS	2.6705
TCGA-D6-A6EK	HNRNPUL1	-2.3445
TCGA-D6-A6EM	SCAF4	-2.1329
TCGA-D6-A6EM	EP300	-2.1202
TCGA-D6-A6EM	RAC1	5.0551
TCGA-D6-A6EM	HRAS	4.8964
TCGA-D6-A6EM	MAPK1	-2.1517
TCGA-D6-A6EM	HNRNPUL1	-2.5925
TCGA-D6-A6EN	PIK3CA	-2.0129
TCGA-D6-A6EN	SCAF4	-2.0935
TCGA-D6-A6EN	EP300	-2.0493
TCGA-D6-A6EN	NOTCH1	3.5911
TCGA-D6-A6EN	CUL3	-2.3379
TCGA-D6-A6EN	HRAS	2.483
TCGA-D6-A6EN	MAPK1	-2.0512
TCGA-D6-A6EN	HNRNPUL1	-2.2046
TCGA-D6-A6EO	NFE2L2	4.1467
TCGA-D6-A6EP	NF2	2.5974
TCGA-D6-A6EP	MYH9	-2.0324
TCGA-D6-A6EP	RB1	-2.4913
TCGA-D6-A6EP	UPF2	-2.7644
TCGA-D6-A6EP	THSD7A	4.1497
TCGA-D6-A6EP	KMT2D	-2.1825
TCGA-D6-A6EP	CASP8	-2.075
TCGA-D6-A6EP	MAPK1	-2.3132
TCGA-D6-A6EP	PDZRN4	6.2213
TCGA-D6-A6EP	KDF1	-2.2677
TCGA-D6-A6EP	RASA1	-2.4821
TCGA-D6-A6EQ	HRAS	3.6744
TCGA-D6-A6EQ	UPF2	-2.4426
TCGA-D6-A6ES	PTEN	-3.0426
TCGA-D6-A6ES	NSD1	-2.0978
TCGA-D6-A6ES	CREBBP	-2.214
TCGA-D6-A6ES	EP300	-2.1791
TCGA-D6-A6ES	RB1	-2.1757
TCGA-D6-A6ES	HRAS	7.28
TCGA-D6-A6ES	CASP8	-2.2231
TCGA-D6-A6ES	FNBP4	-2.3473
TCGA-D6-A6ES	MAPK1	-2.1805
TCGA-D6-A6ES	HNRNPUL1	-2.6169
TCGA-D6-A6ES	KDF1	3.1349
TCGA-D6-A6ES	RASA1	-2.1824
TCGA-HD-A6HZ	VAMP1	3.5826
TCGA-HD-A6HZ	HNRNPUL1	2.0485
TCGA-HD-A6I0	PIK3CA	-2.0371
TCGA-HD-A6I0	SCAF4	-2.9151
TCGA-HD-A6I0	CREBBP	-2.1012
TCGA-HD-A6I0	EP300	-2.1559
TCGA-HD-A6I0	HRAS	5.7124
TCGA-HD-A6I0	UPF2	-2.4282
TCGA-HD-A6I0	MAPK1	-2.1451
TCGA-HD-A6I0	HNRNPUL1	-2.3276
TCGA-HD-A6I0	RASA1	-2.2326
TCGA-KU-A6H7	PTEN	-2.3017
TCGA-KU-A6H7	CDKN2A	4.1747
TCGA-KU-A6H7	RB1	-2.1532
TCGA-KU-A6H7	CHEK2	2.3368
TCGA-KU-A6H7	KDF1	2.2884
TCGA-KU-A6H7	PIK3CA	-2.2344
TCGA-KU-A6H7	SCAF4	-2.026
TCGA-KU-A6H7	CDKN2A	6.7002
TCGA-KU-A6H7	CYLD	-2.0506
TCGA-KU-A6H7	CREBBP	-2.2074
TCGA-KU-A6H7	EP300	-2.0605
TCGA-KU-A6H7	RAC1	6.6555
TCGA-KU-A6H7	HRAS	2.941
TCGA-KU-A6H7	CHEK2	5.2829
TCGA-KU-A6H7	TP53	2.0492
TCGA-KU-A6H7	C12ORF42	2.5543
TCGA-KU-A6H7	MAPK1	-2.5886
TCGA-KU-A6H7	RASA1	-2.3315
TCGA-MZ-A6I9	CHEK2	2.1126
TCGA-MZ-A6I9	KDF1	2.2636
TCGA-QK-A6IF	ARID2	2.8229
TCGA-QK-A6IF	VAMP1	8.3657
TCGA-QK-A6IF	TP53	4.5515
TCGA-QK-A6IF	C12ORF42	2.8391
TCGA-QK-A6IF	FNBP4	4.4358
TCGA-QK-A6IF	HNRNPUL1	5.3611
TCGA-QK-A6IG	NF2	3.554
TCGA-QK-A6IG	CUL3	-2.2754
TCGA-QK-A6IH	FBXW7	4.3058
TCGA-QK-A6IH	RAC1	7.1496
TCGA-QK-A6IH	UPF2	-2.6614
TCGA-QK-A6IH	HNRNPUL1	-2.0845
TCGA-QK-A6IH	KDF1	2.0801
TCGA-QK-A6II	SCAF4	-2.0254
TCGA-QK-A6II	RAC1	4.1059
TCGA-QK-A6II	CUL3	-2.2636
TCGA-QK-A6II	HRAS	2.5674
TCGA-QK-A6II	UPF2	-2.1859
TCGA-QK-A6II	HNRNPUL1	-2.7897
TCGA-QK-A6IJ	EP300	-2.01
TCGA-QK-A6IJ	FFAR2	4.7503
TCGA-QK-A6IJ	HRAS	5.8991
TCGA-QK-A6IJ	UPF2	-2.3538
TCGA-QK-A6IJ	MAPK1	-2.1044
TCGA-QK-A6IJ	HNRNPUL1	-2.129
TCGA-QK-A6IJ	RASA1	-2.2077
TCGA-BB-A6UM	CDKN2A	3.1597
TCGA-CN-A6UY	CYLD	-2.0296
TCGA-CN-A6UY	RAC1	2.9981
TCGA-CN-A6UY	CHEK2	2.1206
TCGA-CN-A6V1	VAMP1	6.091
TCGA-CN-A6V1	C12ORF42	4.9395
TCGA-CN-A6V1	MAPK1	-2.0152
TCGA-CN-A6V3	PIK3CA	3.7375
TCGA-CN-A6V3	NSD1	2.668
TCGA-CN-A6V6	VAMP1	2.2313
TCGA-CN-A6V7	PTEN	-2.0271
TCGA-CN-A6V7	NFE2L2	2.4315
TCGA-CN-A6V7	NOTCH1	2.6165
TCGA-H7-A76A	PTEN	-2.212
TCGA-H7-A76A	VAMP1	4.1606
TCGA-H7-A76A	C12ORF42	3.5713
TCGA-H7-A76A	EPHA2	3.0145
TCGA-IQ-A6SG	PTEN	-2.2133
TCGA-IQ-A6SG	NFE2L2	2.0724
TCGA-IQ-A6SG	RB1	-2.3583
TCGA-IQ-A6SH	RAC1	4.2163
TCGA-IQ-A6SH	CASP8	3.7699
TCGA-KU-A6H8	JPH1	8.0956
TCGA-KU-A6H8	FBXW7	2.5307
TCGA-KU-A6H8	CUL3	2.6725
TCGA-MT-A7BN	PTEN	-2.1041
TCGA-MT-A7BN	NF2	3.3667
TCGA-MT-A7BN	RB1	-2.1825
TCGA-MT-A7BN	CHEK2	2.6453
TCGA-MT-A7BN	UPF2	-2.4745
TCGA-MT-A7BN	MAPK1	-2.3766
TCGA-MT-A7BN	RASA1	-2.2371
TCGA-MZ-A5BI	TP53	2.2119
TCGA-MZ-A7D7	NF2	-2.1247
TCGA-MZ-A7D7	SCAF4	-2.9022
TCGA-MZ-A7D7	NSD1	-2.1234
TCGA-MZ-A7D7	CREBBP	-2.1166
TCGA-MZ-A7D7	CHEK2	3.7517
TCGA-MZ-A7D7	HNRNPUL1	-2.4384
TCGA-P3-A6SW	PIK3CA	2.8383
TCGA-P3-A6SW	KDF1	2.0398
TCGA-P3-A6SX	MYH9	3.206
TCGA-P3-A6SX	KDF1	2.0219
TCGA-P3-A6T0	NF2	-3.0737
TCGA-P3-A6T0	FBXW7	4.5671
TCGA-P3-A6T0	TGFBR2	2.0601
TCGA-P3-A6T0	MAPK1	6.3346
TCGA-P3-A6T0	KDF1	2.0673
TCGA-P3-A6T0	RASA1	2.5336
TCGA-P3-A6T2	TGFBR2	2.4986
TCGA-P3-A6T2	NOTCH1	2.0075
TCGA-P3-A6T2	HNRNPUL1	-2.0301
TCGA-P3-A6T3	MYH9	3.1267
TCGA-P3-A6T4	PIK3CA	4.1197
TCGA-P3-A6T4	FNBP4	2.6739
TCGA-P3-A6T5	KDF1	4.7682
TCGA-P3-A6T6	CUL3	-2.2043
TCGA-P3-A6T6	CHEK2	3.068
TCGA-P3-A6T7	SCAF4	2.3933
TCGA-P3-A6T8	PIK3CA	3.5233
TCGA-QK-A6V9	PTEN	-3.1863
TCGA-QK-A6V9	NFE2L2	2.0741
TCGA-QK-A6V9	RB1	-2.091
TCGA-QK-A6V9	HNRNPUL1	2.8507
TCGA-QK-A6VB	SCAF4	2.518
TCGA-QK-A6VB	ARID2	2.0052
TCGA-QK-A6VB	UPF2	6.2711
TCGA-QK-A6VB	FNBP4	2.3097
TCGA-QK-A6VC	CYLD	2.7162
TCGA-QK-A6VC	RAC1	2.9083
TCGA-QK-A6VC	FNBP4	3.4829
TCGA-QK-A6VC	EPHA2	4.6859
TCGA-RS-A6TP	PIK3CA	3.4017
TCGA-RS-A6TP	AJUBA	2.4718
TCGA-RS-A6TP	CDKN2A	2.1442
TCGA-RS-A6TP	NSD1	2.4271
TCGA-RS-A6TP	CREBBP	2.2312
TCGA-RS-A6TP	NOTCH1	4.1667
TCGA-RS-A6TP	HNRNPUL1	2.1401
TCGA-T2-A6WX	NOTCH1	2.8216
TCGA-T2-A6WX	CASP8	2.4904
TCGA-T2-A6WZ	RB1	-2.4573
TCGA-T2-A6WZ	CHEK2	2.9679
TCGA-T2-A6WZ	CASP8	-2.1916
TCGA-T2-A6WZ	MAPK1	-2.2533
TCGA-T2-A6X0	PTEN	-2.674
TCGA-T2-A6X0	NFE2L2	4.5532
TCGA-T2-A6X0	NOTCH1	2.9921
TCGA-T2-A6X0	UPF2	2.3861
TCGA-TN-A7HI	CDKN2A	2.4872
TCGA-TN-A7HI	VAMP1	2.0899
TCGA-TN-A7HI	CHEK2	4.4089
TCGA-TN-A7HI	CASP8	-2.0368
TCGA-TN-A7HI	C12ORF42	5.0471
TCGA-TN-A7HI	MAPK1	-2.3579
TCGA-TN-A7HI	RASA1	-2.0499
TCGA-TN-A7HL	CDKN2A	2.7748
TCGA-TN-A7HL	ZNF750	2.371
TCGA-UF-A718	PTEN	-2.125
TCGA-UF-A718	FBXW7	3.8302
TCGA-UF-A718	AHDC1	3.5922
TCGA-UF-A719	PTEN	-2.743
TCGA-UF-A719	NFE2L2	2.8575
TCGA-UF-A719	FFAR2	2.389
TCGA-UF-A719	CUL3	3.2518
TCGA-UF-A719	CHEK2	5.0608
TCGA-UF-A719	CASP8	3.3369
TCGA-UF-A71A	PIK3CA	4.099
TCGA-UF-A71A	NF2	3.1494
TCGA-UF-A71A	SCAF4	-2.1354
TCGA-UF-A71A	CHEK2	4.1767
TCGA-UF-A71A	KDF1	-2.3787
TCGA-UF-A71A	PIK3CA	2.7098
TCGA-UF-A71A	SCAF4	-2.3248
TCGA-UF-A71A	CUL3	-2.4926
TCGA-UF-A71A	CHEK2	4.0827
TCGA-UF-A71A	KDF1	-2.3019
TCGA-UF-A71B	NF2	2.7672
TCGA-UF-A71B	CHEK2	2.0795
TCGA-UF-A71D	PIK3CA	2.0512
TCGA-UF-A71D	NFE2L2	3.8949
TCGA-UF-A7J9	PIK3CA	3.479
TCGA-UF-A7J9	NFE2L2	3.5405
TCGA-UF-A7J9	CHEK2	2.3723
TCGA-UF-A7J9	MAPK1	3.0872
TCGA-UF-A7J9	AHDC1	4.3992
TCGA-UF-A7JA	PIK3CA	3.7779
TCGA-UF-A7JD	NF2	2.4948
TCGA-UF-A7JD	MYH9	2.7976
TCGA-UF-A7JF	PTEN	-2.0232
TCGA-UF-A7JF	NSD1	-2.0758
TCGA-UF-A7JF	UPF2	-2.1968
TCGA-UF-A7JJ	CYLD	2.7672
TCGA-UF-A7JJ	CUL3	-2.5184
TCGA-UF-A7JK	PIK3CA	2.7671
TCGA-UF-A7JK	AJUBA	4.9225
TCGA-UF-A7JS	PIK3CA	-2.4302
TCGA-UF-A7JS	SCAF4	-2.3333
TCGA-UF-A7JS	EP300	-2.0543
TCGA-UF-A7JS	RB1	-2.3622
TCGA-UF-A7JS	RAC1	3.4166
TCGA-UF-A7JS	HRAS	5.2413
TCGA-UF-A7JS	CHEK2	4.3565
TCGA-UF-A7JS	UPF2	-2.0602
TCGA-UF-A7JS	CASP8	-2.0542
TCGA-UF-A7JS	MAPK1	-2.913
TCGA-UF-A7JS	RASA1	-2.4352
TCGA-UF-A7JT	CASP8	2.223
TCGA-UF-A7JV	NOTCH1	2.5587
TCGA-UF-A7JV	CUL3	-2.1116
TCGA-UP-A6WW	RB1	-2.4513
TCGA-UP-A6WW	RAC1	2.4238
TCGA-UP-A6WW	VAMP1	2.8169
TCGA-UP-A6WW	C12ORF42	4.4693
TCGA-UP-A6WW	AHDC1	2.4509
TCGA-WA-A7GZ	FAT1	2.0582
TCGA-WA-A7H4	FNBP4	2.082
TCGA-WA-A7H4	RASA1	2.0887
TCGA-4P-AA8J	MAPK1	-2.1056
TCGA-BA-A8YP	PIK3CA	4.1731
TCGA-BA-A8YP	NFE2L2	3.5719
TCGA-BA-A8YP	CREBBP	2.5954
TCGA-BA-A8YP	NOTCH2	2.994
TCGA-BA-A8YP	AHDC1	2.0653
TCGA-QK-A8Z7	PIK3CA	3.5521
TCGA-QK-A8Z7	CYLD	-2.1587
TCGA-QK-A8Z7	CHEK2	2.5951
TCGA-QK-A8Z7	FNBP4	2.9613
TCGA-QK-A8Z8	PIK3CA	2.3833
TCGA-QK-A8Z8	NFE2L2	2.8677
TCGA-QK-A8Z8	RAC1	-2.1962
TCGA-QK-A8Z9	FBXW7	2.867
TCGA-QK-A8ZA	NFE2L2	3.0012
TCGA-QK-A8ZA	VAMP1	2.439
TCGA-QK-A8ZB	FBXW7	3.3335
TCGA-QK-AA3J	VAMP1	2.1427
TCGA-QK-AA3K	NF2	2.4283
TCGA-QK-AA3K	KDF1	-3.1934
TCGA-T3-A92M	PIK3CA	2.3476
TCGA-BA-4074	SCAF4	-2.4084
TCGA-BA-4074	NSD1	-2.0149
TCGA-BA-4074	CREBBP	-2.1077
TCGA-BA-4074	CHEK2	6.1101
TCGA-BA-4074	UPF2	-2.6827
TCGA-BA-4074	KMT2D	-2.0385
TCGA-BA-4074	HNRNPUL1	-2.2094
TCGA-BA-4075	NF2	-2.0904
TCGA-BA-4075	SCAF4	-2.7986
TCGA-BA-4075	NSD1	-2.1943
TCGA-BA-4075	CREBBP	-2.0626
TCGA-BA-4075	RAC1	4.3211
TCGA-BA-4075	CUL3	-2.4712
TCGA-BA-4075	UPF2	-2.8945
TCGA-BA-4075	KMT2D	-2.0026
TCGA-BA-4075	HNRNPUL1	-2.4411
TCGA-BA-4076	RAC1	2.5553
TCGA-BA-4076	MAPK1	2.2498
TCGA-BA-4077	PIK3CA	2.7359
TCGA-BA-4078	PIK3CA	2.2205
TCGA-BA-4078	ARID2	2.0832
TCGA-BA-4078	VAMP1	3.4943
TCGA-BA-4078	CHEK2	3.488
TCGA-BA-4078	C12ORF42	2.3129
TCGA-BA-4078	FNBP4	6.5389
TCGA-BA-5151	PIK3CA	3.2663
TCGA-BA-5151	PTEN	3.8908
TCGA-BA-5151	CD300E	2.0215
TCGA-BA-5151	UPF2	3.7313
TCGA-BA-5153	PIK3CA	4.9568
TCGA-BA-5153	ARID2	3.0011
TCGA-BA-5153	CREBBP	2.781
TCGA-BA-5153	TP53	2.3838
TCGA-BA-5153	HNRNPUL1	5.4682
TCGA-BA-5153	AHDC1	2.9644
TCGA-BB-4223	ARID2	4.4041
TCGA-BB-4223	VAMP1	3.7531
TCGA-BB-4223	TP53	2.1734
TCGA-BB-4223	KMT2D	2.2033
TCGA-BB-4223	C12ORF42	3.2293
TCGA-BB-4223	HNRNPUL1	3.6326
TCGA-BB-4224	FBXW7	3.6896
TCGA-BB-4224	RAC1	2.032
TCGA-BB-4224	VAMP1	2.4824
TCGA-BB-4224	FNBP4	3.5467
TCGA-BB-4225	RAC1	2.1781
TCGA-BB-4225	TP53	3.3102
TCGA-BB-4225	PDZRN4	4.4468
TCGA-BB-4225	HNRNPUL1	2.0739
TCGA-BB-4228	TP53	2.9866
TCGA-CN-4722	NOTCH2	2.2227
TCGA-CN-4722	THSD7A	2.0749
TCGA-CN-4723	PIK3CA	6.8636
TCGA-CN-4723	NSD1	2.2651
TCGA-CN-4723	VAMP1	2.4101
TCGA-CN-4726	PIK3CA	2.5148
TCGA-CN-4726	PTEN	4.2406
TCGA-CN-4726	NF2	-2.1267
TCGA-CN-4726	SCAF4	-2.0453
TCGA-CN-4726	CREBBP	-2.0462
TCGA-CN-4726	RB1	5.3007
TCGA-CN-4726	MAPK1	2.6977
TCGA-CN-4726	HNRNPUL1	-2.2921
TCGA-CN-4727	PIK3CA	2.4785
TCGA-CN-4727	SLC2A13	2.7272
TCGA-CN-4727	UPF2	2.064
TCGA-CN-4728	PIK3CA	2.5349
TCGA-CN-4728	MAPK1	2.9596
TCGA-CN-4729	SCAF4	2.0714
TCGA-CN-4730	AJUBA	4.2272
TCGA-CN-4730	NSD1	-2.1371
TCGA-CN-4730	FBXW7	-2.1852
TCGA-CN-4730	MAPK1	2.8847
TCGA-CN-4731	PIK3CA	3.0779
TCGA-CN-4731	NSD1	-2.5218
TCGA-CN-4731	RB1	3.1868
TCGA-CN-4731	MAPK1	2.348
TCGA-CN-4734	KMT2D	3.0388
TCGA-CN-4735	PIK3CA	3.2251
TCGA-CN-4735	SLC2A13	2.4403
TCGA-CN-4735	PDZRN4	4.7596
TCGA-CN-4736	PIK3CA	2.1783
TCGA-CN-4736	CYLD	2.4487
TCGA-CN-4737	PIK3CA	2.0498
TCGA-CN-4737	AJUBA	2.3511
TCGA-CN-4737	KMT2D	2.4885
TCGA-CN-4737	MAPK1	2.0227
TCGA-CN-4740	CD300E	2.9567
TCGA-CN-4740	NOTCH2	2.1861
TCGA-CN-4740	THSD7A	3.717
TCGA-CN-4740	PDZRN4	5.3391
TCGA-CN-4741	PIK3CA	10.4405
TCGA-CN-4741	NSD1	2.7332
TCGA-CN-5355	PIK3CA	2.7088
TCGA-CN-5355	CYLD	2.0693
TCGA-CN-5356	PIK3CA	2.8947
TCGA-CN-5356	SCAF4	2.5612
TCGA-CN-5356	ARID2	2.6676
TCGA-CN-5356	CREBBP	2.3877
TCGA-CN-5356	TGFBR2	2.3692
TCGA-CN-5356	UPF2	4.6702
TCGA-CN-5356	THSD7A	2.9094
TCGA-CN-5356	MAPK1	2.0775
TCGA-CN-5359	PIK3CA	3.6483
TCGA-CN-5359	CYLD	2.4145
TCGA-CN-5359	CD300E	2.2299
TCGA-CN-5359	FFAR2	3.5792
TCGA-CN-5360	PIK3CA	3.2749
TCGA-CN-5360	SCAF4	2.1727
TCGA-CN-5360	NFE2L2	3.5673
TCGA-CN-5360	ARID2	2.5185
TCGA-CN-5360	CREBBP	3.2881
TCGA-CN-5360	KMT2D	2.8593
TCGA-CN-5360	FNBP4	2.1671
TCGA-CN-5361	PIK3CA	7.2641
TCGA-CN-5363	PIK3CA	2.7713
TCGA-CN-5363	AJUBA	2.8805
TCGA-CN-5364	PIK3CA	2.9326
TCGA-CN-5365	NF2	-2.7433
TCGA-CN-5365	RAC1	2.213
TCGA-CN-5365	CASP8	2.385
TCGA-CN-5365	KDF1	2.2457
TCGA-CN-5366	PIK3CA	2.4641
TCGA-CN-5369	FFAR2	2.6364
TCGA-CN-5369	CASP8	2.7078
TCGA-CN-5373	PTEN	2.7425
TCGA-CN-5373	FBXW7	3.2876
TCGA-CN-5373	NOTCH2	3.0558
TCGA-CN-5374	SLC2A13	2.0159
TCGA-CN-5374	OR2T35	13.9988
TCGA-CN-5374	VAMP1	2.3405
TCGA-BA-5555	PIK3CA	2.9016
TCGA-BA-5555	NF2	2.4178
TCGA-BA-5555	CREBBP	2.3778
TCGA-BA-5555	MYH9	3.4839
TCGA-BA-5555	EP300	2.475
TCGA-BA-5555	RB1	-2.225
TCGA-BA-5555	VAMP1	2.9709
TCGA-BA-5555	CUL3	-2.5123
TCGA-BA-5555	TP53	2.2528
TCGA-BA-5555	MAPK1	3.236
TCGA-BA-5556	NOTCH1	3.1994
TCGA-BA-5557	PIK3CA	2.0694
TCGA-BA-5557	CD300E	5.8842
TCGA-BA-5557	MYH9	3.5629
TCGA-BA-5557	FFAR2	3.3429
TCGA-BA-5557	NOTCH2	3.1748
TCGA-BA-5557	MAPK1	3.701
TCGA-BA-5558	PIK3CA	2.4068
TCGA-BA-5558	CD300E	2.8071
TCGA-BA-5559	ARID2	4.4996
TCGA-BA-5559	CREBBP	2.8899
TCGA-BA-5559	VAMP1	2.4909
TCGA-BA-5559	NOTCH1	8.4567
TCGA-BA-5559	KMT2D	3.6561
TCGA-BA-5559	HNRNPUL1	4.9393
TCGA-BA-5559	AHDC1	2.1849
TCGA-CN-4738	NSD1	2.0488
TCGA-CN-4739	NF2	2.0623
TCGA-CN-4739	CREBBP	2.3045
TCGA-CN-4739	FFAR2	3.4573
TCGA-CN-4739	KMT2D	2.3546
TCGA-CN-4739	MAPK1	2.223
TCGA-CN-4739	AHDC1	2.0163
TCGA-CN-4739	KDF1	2.1022
TCGA-CN-4742	PIK3CA	2.3836
TCGA-CN-4742	NOTCH2	3.7524
TCGA-CN-4742	MAPK1	2.3531
TCGA-CN-5358	CD300E	2.004
TCGA-CN-5358	THSD7A	5.5511
TCGA-CN-5358	PDZRN4	2.0866
TCGA-CR-5243	PIK3CA	2.0767
TCGA-CR-5243	ARID2	2.3745
TCGA-CR-5243	CREBBP	2.1001
TCGA-CR-5243	NOTCH1	2.1824
TCGA-CR-5243	TP53	2.5959
TCGA-CR-5243	HNRNPUL1	2.5509
TCGA-CR-5243	AHDC1	3.3708
TCGA-CR-5249	PIK3CA	7.7926
TCGA-CR-5249	ARID2	2.4233
TCGA-CR-5249	NOTCH2	3.0201
TCGA-CR-5249	AHDC1	2.6525
TCGA-CR-5250	ARID2	2.7016
TCGA-CR-5250	NSD1	2.2187
TCGA-CR-5250	CREBBP	2.0457
TCGA-CR-5250	KMT2D	2.2463
TCGA-CV-5431	NF2	3.2317
TCGA-CV-5431	CHEK2	2.504
TCGA-CV-5431	FNBP4	2.1678
TCGA-CV-5431	HNRNPUL1	2.8264
TCGA-CV-5436	PTEN	-2.1315
TCGA-CV-5436	CUL3	-2.3962
TCGA-CV-5436	CASP8	-2.0792
TCGA-CV-5436	FAT1	3.984
TCGA-CV-5441	UPF2	3.4233
TCGA-CV-5441	PDZRN4	10.9572
TCGA-CV-5442	PIK3CA	3.1019
TCGA-CV-5442	NOTCH1	4.4311
TCGA-CV-5442	ZNF750	3.1699
TCGA-CV-5442	HNRNPUL1	2.0881
TCGA-CV-5443	RAC1	2.4584
TCGA-CV-5444	PDZRN4	2.004
