Overall Survival Kaplan-Meier Estimate

Cases with Alteration(s) in Query Gene(s)
Case ID	Number at Risk	Status	Survival Rate	Time (months)
TCGA-CV-7421	447	deceased	0.9977628635346756	0.07
TCGA-IQ-A61I	446	deceased	0.9955257270693512	0.07
TCGA-HD-A4C1	445	censored	0.9955257270693512	0.36
TCGA-CX-7082	444	deceased	0.9932835520083841	0.36
TCGA-F7-A61W	443	censored	0.9932835520083841	0.46
TCGA-CV-7414	442	deceased	0.9910363041531616	0.46
TCGA-CV-A463	441	deceased	0.9887890562979389	0.76
TCGA-CR-7374	440	censored	0.9887890562979389	0.99
TCGA-CV-A45V	439	deceased	0.9865366894271008	1.05
TCGA-CV-7102	438	deceased	0.9842843225562627	1.84
TCGA-MT-A67D	437	censored	0.9842843225562627	1.84
TCGA-P3-A6T4	436	deceased	0.982026789706363	2.04
TCGA-CV-7255	435	deceased	0.9797692568564633	2.1
TCGA-CV-6934	434	deceased	0.9775117240065636	2.14
TCGA-CV-6961	433	deceased	0.975254191156664	2.5
TCGA-D6-6824	432	censored	0.975254191156664	2.53
TCGA-UF-A71A	431	deceased	0.972991420411521	2.83
TCGA-CQ-5326	430	deceased	0.9707286496663778	2.92
TCGA-UF-A7JV	429	deceased	0.9684658789212347	2.96
TCGA-F7-A50I	428	censored	0.9684658789212347	3.02
TCGA-CR-7371	427	deceased	0.9661978089471803	3.09
TCGA-CR-7370	426	censored	0.9661978089471803	3.45
TCGA-CV-7429	425	deceased	0.9639244023378929	3.52
TCGA-BA-6871	424	deceased	0.9616509957286054	3.55
TCGA-CV-A6JU	423	censored	0.9616509957286054	3.61
TCGA-HD-A6HZ	422	censored	0.9616509957286054	3.65
TCGA-CN-6995	421	deceased	0.9593667890879198	3.68
TCGA-BA-6873	420	censored	0.9593667890879198	4.01
TCGA-CV-6962	419	deceased	0.9570771308800727	4.14
TCGA-CQ-6227	418	deceased	0.9547874726722257	4.24
TCGA-CQ-5334	417	deceased	0.9524978144643786	4.24
TCGA-HD-A634	416	deceased	0.9502081562565315	4.27
TCGA-BB-4227	415	censored	0.9502081562565315	4.4
TCGA-CN-4726	414	deceased	0.9479129674733032	4.66
TCGA-CV-7236	413	deceased	0.9456177786900749	4.73
TCGA-CV-6938	412	deceased	0.9433225899068466	4.73
TCGA-BB-4225	411	censored	0.9433225899068466	4.8
TCGA-CV-7252	410	deceased	0.9410218031021957	4.96
TCGA-CR-7398	409	censored	0.9410218031021957	5.12
TCGA-CV-7101	408	deceased	0.9387153771142002	5.26
TCGA-QK-A8Z8	407	deceased	0.9364089511262046	5.62
TCGA-CR-7399	406	censored	0.9364089511262046	5.95
TCGA-CV-A6JD	405	deceased	0.9340968302592263	5.98
TCGA-CR-6478	404	deceased	0.931784709392248	6.01
TCGA-BB-4217	403	censored	0.931784709392248	6.14
TCGA-CV-A6JM	402	deceased	0.9294668369808244	6.37
TCGA-CV-A45X	401	deceased	0.927148964569401	6.5
TCGA-CN-6020	400	deceased	0.9248310921579775	6.73
TCGA-T2-A6WX	399	deceased	0.922513219746554	6.87
TCGA-HD-A6I0	398	censored	0.922513219746554	6.9
TCGA-CV-5978	397	deceased	0.9201895088655804	7.06
TCGA-T2-A6X0	396	censored	0.9201895088655804	7.1
TCGA-CV-6956	395	deceased	0.9178599151722497	7.13
TCGA-MZ-A5BI	394	deceased	0.9155303214789192	7.13
TCGA-CV-7434	393	deceased	0.9132007277855887	7.16
TCGA-QK-A6IG	392	deceased	0.9108711340922582	7.29
TCGA-D6-A6EM	391	censored	0.9108711340922582	7.62
TCGA-CR-6487	390	censored	0.9108711340922582	7.69
TCGA-MT-A51X	389	censored	0.9108711340922582	7.95
TCGA-CN-5363	388	deceased	0.9085235280765565	8.31
TCGA-QK-AA3K	387	censored	0.9085235280765565	8.31
TCGA-CV-6959	386	deceased	0.906169840179985	8.41
TCGA-CN-5370	385	deceased	0.9038161522834136	8.51
TCGA-CN-5358	384	deceased	0.9014624643868423	8.57
TCGA-CV-7100	383	deceased	0.8991087764902709	9
TCGA-CN-6021	382	deceased	0.8967550885936995	9.07
TCGA-BA-4078	381	deceased	0.8944014006971281	9.07
TCGA-BB-4224	380	censored	0.8944014006971281	9.13
TCGA-CR-7377	379	deceased	0.8920415025422544	9.17
TCGA-CN-6022	378	deceased	0.8896816043873808	9.23
TCGA-CR-6493	377	deceased	0.8873217062325071	9.26
TCGA-BA-4075	376	deceased	0.8849618080776334	9.3
TCGA-QK-A6II	375	deceased	0.8826019099227597	9.33
TCGA-D6-6517	374	censored	0.8826019099227597	9.59
TCGA-CV-6441	373	deceased	0.8802356849631812	9.59
TCGA-CV-7413	372	deceased	0.8778694600036028	9.66
TCGA-CV-6935	371	deceased	0.8755032350440243	9.69
TCGA-CR-6481	370	censored	0.8755032350440243	10.22
TCGA-CV-A6K2	369	deceased	0.87313059755068	10.41
TCGA-CQ-5332	368	deceased	0.8707579600573359	10.41
TCGA-CN-6988	367	censored	0.8707579600573359	10.45
TCGA-CX-7085	366	censored	0.8707579600573359	10.55
TCGA-BB-A5HY	365	deceased	0.8683723218106034	10.55
TCGA-KU-A6H8	364	deceased	0.865986683563871	10.74
TCGA-P3-A5QF	363	deceased	0.8636010453171385	10.84
TCGA-CV-6955	362	deceased	0.8612154070704061	10.97
TCGA-CN-6024	361	deceased	0.8588297688236737	11.07
TCGA-CV-6941	360	deceased	0.8564441305769412	11.24
TCGA-CR-6482	359	censored	0.8564441305769412	11.33
TCGA-D6-6826	358	deceased	0.8540518285362235	11.43
TCGA-BA-A6DA	357	censored	0.8540518285362235	11.53
TCGA-CN-5365	356	deceased	0.8516528065459533	11.53
TCGA-CN-6998	355	deceased	0.849253784555683	11.73
TCGA-CR-5247	354	censored	0.849253784555683	11.76
TCGA-F7-A622	353	deceased	0.846847966469123	11.79
TCGA-CN-5366	352	deceased	0.844442148382563	11.83
TCGA-IQ-A61G	351	censored	0.844442148382563	11.83
TCGA-CV-7253	350	deceased	0.8420294565300414	11.86
TCGA-CR-6480	349	censored	0.8420294565300414	11.89
TCGA-CV-6945	348	deceased	0.839609831654955	12.02
TCGA-CN-A641	347	censored	0.839609831654955	12.06
TCGA-D6-A6EQ	346	censored	0.839609831654955	12.09
TCGA-QK-A8ZA	345	deceased	0.8371761799689986	12.19
TCGA-CN-5359	344	deceased	0.8347425282830422	12.39
TCGA-F7-A624	343	censored	0.8347425282830422	12.42
TCGA-CQ-A4CH	342	deceased	0.8323017606564836	12.45
TCGA-CR-6488	341	censored	0.8323017606564836	12.45
TCGA-CN-5369	340	deceased	0.8298538143016116	12.48
TCGA-MT-A67F	339	censored	0.8298538143016116	12.61
TCGA-BA-6872	338	deceased	0.8273986255019027	12.61
TCGA-HD-8634	337	deceased	0.8249434367021938	12.65
TCGA-CV-7097	336	deceased	0.822488247902485	12.65
TCGA-C9-A480	335	censored	0.822488247902485	12.68
TCGA-QK-A6IJ	334	censored	0.822488247902485	12.71
TCGA-D6-A6ES	333	censored	0.822488247902485	12.78
TCGA-CR-7389	332	censored	0.822488247902485	12.88
TCGA-CN-4729	331	censored	0.822488247902485	12.88
TCGA-QK-A8Z7	330	censored	0.822488247902485	12.88
TCGA-BB-A6UM	329	censored	0.822488247902485	12.91
TCGA-P3-A6T6	328	deceased	0.8199806617808311	12.98
TCGA-CN-4736	327	deceased	0.8174730756591772	12.98
TCGA-CN-4742	326	deceased	0.8149654895375232	13.04
TCGA-P3-A6T8	325	censored	0.8149654895375232	13.14
TCGA-D6-6515	324	deceased	0.8124501639525309	13.24
TCGA-CQ-6225	323	deceased	0.8099348383675385	13.24
TCGA-CV-5970	322	deceased	0.8074195127825462	13.34
TCGA-BA-A6DJ	321	deceased	0.8049041871975539	13.37
TCGA-H7-7774	320	censored	0.8049041871975539	13.37
TCGA-TN-A7HI	319	censored	0.8049041871975539	13.53
TCGA-BA-4076	318	deceased	0.8023730419547942	13.63
TCGA-T3-A92M	317	censored	0.8023730419547942	13.7
TCGA-HD-A633	316	censored	0.8023730419547942	13.83
TCGA-IQ-A61O	315	deceased	0.7998258259485885	13.83
TCGA-UF-A7JK	314	deceased	0.7972786099423829	13.93
TCGA-D6-A6EP	313	censored	0.7972786099423829	13.93
TCGA-DQ-7588	312	deceased	0.7947232297823111	14.03
TCGA-CQ-A4CG	311	deceased	0.7921678496222394	14.13
TCGA-CN-4738	310	deceased	0.7896124694621677	14.32
TCGA-BA-A6DE	309	censored	0.7896124694621677	14.45
TCGA-IQ-7632	308	censored	0.7896124694621677	14.49
TCGA-WA-A7H4	307	censored	0.7896124694621677	14.55
TCGA-HD-8224	306	deceased	0.7870320365554285	14.65
TCGA-QK-A8Z9	305	deceased	0.7844516036486895	14.75
TCGA-BA-6870	304	deceased	0.7818711707419503	14.82
TCGA-CV-7424	303	deceased	0.7792907378352112	14.88
TCGA-CQ-6228	302	deceased	0.776710304928472	14.98
TCGA-H7-8502	301	censored	0.776710304928472	15.05
TCGA-CV-6950	300	deceased	0.7741212705787105	15.08
TCGA-H7-8501	299	censored	0.7741212705787105	15.14
TCGA-BA-4074	298	deceased	0.7715235481942181	15.18
TCGA-QK-AA3J	297	censored	0.7715235481942181	15.31
TCGA-MT-A7BN	296	censored	0.7715235481942181	15.41
TCGA-IQ-A6SH	295	censored	0.7715235481942181	15.47
TCGA-BA-6868	294	deceased	0.7688993184384555	15.51
TCGA-CR-6492	293	censored	0.7688993184384555	15.74
TCGA-CQ-6219	292	deceased	0.7662661015944882	15.74
TCGA-P3-A5Q6	291	deceased	0.7636328847505208	15.77
TCGA-T2-A6WZ	290	deceased	0.7609996679065535	15.9
TCGA-IQ-7630	289	censored	0.7609996679065535	15.93
TCGA-P3-A6T7	288	deceased	0.7583573079485446	16
TCGA-MZ-A6I9	287	deceased	0.7557149479905357	16.06
TCGA-D6-6825	286	censored	0.7557149479905357	16.13
TCGA-CN-5364	285	deceased	0.7530633165940777	16.2
TCGA-CV-7430	284	deceased	0.7504116851976197	16.26
TCGA-BA-A8YP	283	censored	0.7504116851976197	16.39
TCGA-CV-7437	282	deceased	0.7477506508529473	16.62
TCGA-CQ-7067	281	censored	0.7477506508529473	16.72
TCGA-CR-6477	280	censored	0.7477506508529473	16.89
TCGA-RS-A6TP	279	censored	0.7477506508529473	16.95
TCGA-UP-A6WW	278	censored	0.7477506508529473	17.02
TCGA-BA-5555	277	censored	0.7477506508529473	17.08
TCGA-CV-7248	276	deceased	0.7450414093643497	17.12
TCGA-CV-5431	275	deceased	0.7423321678757521	17.15
TCGA-CN-A49A	274	deceased	0.7396229263871544	17.28
TCGA-CN-6996	273	deceased	0.7369136848985568	17.41
TCGA-D6-A4Z9	272	censored	0.7369136848985568	17.71
TCGA-QK-A8ZB	271	censored	0.7369136848985568	17.81
TCGA-F7-A620	270	censored	0.7369136848985568	17.84
TCGA-CV-5966	269	deceased	0.734174228820867	17.9
TCGA-CV-5439	268	deceased	0.7314347727431773	17.94
TCGA-MZ-A7D7	267	censored	0.7314347727431773	17.97
TCGA-DQ-5631	266	deceased	0.7286850179584284	18
TCGA-UF-A7JJ	265	censored	0.7286850179584284	18.04
TCGA-KU-A66T	264	censored	0.7286850179584284	18.13
TCGA-BB-4228	263	censored	0.7286850179584284	18.36
TCGA-CV-7263	262	deceased	0.7259037774318696	18.4
TCGA-CR-6474	261	deceased	0.7231225369053107	18.53
TCGA-D6-6827	260	censored	0.7231225369053107	18.66
TCGA-CV-7095	259	deceased	0.7203305579983403	18.79
TCGA-CX-7086	258	censored	0.7203305579983403	18.82
TCGA-CV-7247	257	deceased	0.7175277153602145	18.96
TCGA-P3-A6T3	256	deceased	0.7147248727220887	18.96
TCGA-P3-A6T0	255	censored	0.7147248727220887	18.99
TCGA-IQ-A6SG	254	censored	0.7147248727220887	19.02
TCGA-CN-6018	253	deceased	0.7118998732251635	19.05
TCGA-CV-5436	252	deceased	0.7090748737282382	19.19
TCGA-KU-A6H7	251	censored	0.7090748737282382	19.25
TCGA-CN-A6V7	250	censored	0.7090748737282382	19.51
TCGA-QK-A6VC	249	censored	0.7090748737282382	19.71
TCGA-CV-7433	248	deceased	0.7062157008503017	19.74
TCGA-CV-6943	247	deceased	0.7033565279723653	19.78
TCGA-CN-A6V1	246	censored	0.7033565279723653	19.81
TCGA-CR-7380	245	deceased	0.7004856850010495	19.91
TCGA-F7-A50G	244	censored	0.7004856850010495	20.24
TCGA-F7-A623	243	censored	0.7004856850010495	20.24
TCGA-TN-A7HL	242	censored	0.7004856850010495	20.34
TCGA-DQ-7591	241	censored	0.7004856850010495	20.43
TCGA-BA-A4IH	240	censored	0.7004856850010495	20.43
TCGA-BA-5557	239	censored	0.7004856850010495	20.47
TCGA-CV-6937	238	deceased	0.6975424678371795	20.5
TCGA-BB-8601	237	censored	0.6975424678371795	20.5
TCGA-WA-A7GZ	236	deceased	0.6945867794141407	20.53
TCGA-CN-4737	235	censored	0.6945867794141407	20.53
TCGA-CN-A6V6	234	censored	0.6945867794141407	20.86
TCGA-H7-A76A	233	censored	0.6945867794141407	20.93
TCGA-CV-A45P	232	censored	0.6945867794141407	20.99
TCGA-QK-A64Z	231	deceased	0.6915799102391877	21.06
TCGA-QK-A6VB	230	censored	0.6915799102391877	21.06
TCGA-CV-6433	229	censored	0.6915799102391877	21.06
TCGA-BA-6869	228	censored	0.6915799102391877	21.16
TCGA-CN-A49C	227	censored	0.6915799102391877	21.19
TCGA-CV-A6JY	226	censored	0.6915799102391877	21.22
TCGA-QK-A6IH	225	censored	0.6915799102391877	21.45
TCGA-CV-7177	224	deceased	0.68849249992562	21.78
TCGA-CV-6939	223	deceased	0.6854050896120522	21.88
TCGA-HD-7831	222	censored	0.6854050896120522	21.91
TCGA-HD-8314	221	censored	0.6854050896120522	22.01
TCGA-CV-7440	220	deceased	0.6822896119319974	22.17
TCGA-CN-A63V	219	censored	0.6822896119319974	22.31
TCGA-UF-A7JS	218	deceased	0.679159843069924	22.34
TCGA-BB-7861	217	censored	0.679159843069924	22.4
TCGA-CV-A6K1	216	censored	0.679159843069924	22.5
TCGA-D6-A6EN	215	censored	0.679159843069924	22.57
TCGA-CV-7415	214	deceased	0.6759861989434292	22.83
TCGA-HD-8635	213	censored	0.6759861989434292	22.83
TCGA-D6-6823	212	censored	0.6759861989434292	23.03
TCGA-CV-5971	211	censored	0.6759861989434292	23.03
TCGA-QK-A6IF	210	censored	0.6759861989434292	23.13
TCGA-CQ-A4C9	209	censored	0.6759861989434292	23.23
TCGA-CN-A6UY	208	censored	0.6759861989434292	23.42
TCGA-CN-A499	207	censored	0.6759861989434292	23.55
TCGA-BA-5151	206	censored	0.6759861989434292	23.72
TCGA-BA-5556	205	censored	0.6759861989434292	23.82
TCGA-CN-6013	204	deceased	0.6726725411054711	23.88
TCGA-UF-A7JD	203	deceased	0.6693588832675131	24.28
TCGA-CN-A6V3	202	censored	0.6693588832675131	24.38
TCGA-BB-7871	201	censored	0.6693588832675131	24.64
TCGA-CR-7397	200	censored	0.6693588832675131	24.77
TCGA-D6-A6EO	199	censored	0.6693588832675131	24.93
TCGA-D6-8568	198	censored	0.6693588832675131	24.93
TCGA-CR-7372	197	censored	0.6693588832675131	24.93
TCGA-F7-A61V	196	censored	0.6693588832675131	24.93
TCGA-CV-7416	195	deceased	0.665926273609731	25.07
TCGA-D6-8569	194	censored	0.665926273609731	25.3
TCGA-D6-6516	193	censored	0.665926273609731	25.39
TCGA-CN-A498	192	deceased	0.6624579076013469	25.39
TCGA-BB-A5HU	191	censored	0.6624579076013469	25.69
TCGA-HD-7754	190	censored	0.6624579076013469	25.72
TCGA-CV-7418	189	deceased	0.6589528393071599	25.92
TCGA-CR-7382	188	censored	0.6589528393071599	26.15
TCGA-CV-7245	187	censored	0.6589528393071599	26.18
TCGA-CR-5250	186	censored	0.6589528393071599	26.25
TCGA-CV-6940	185	deceased	0.6553909320676617	26.41
TCGA-CN-4730	184	censored	0.6553909320676617	26.84
TCGA-CR-7388	183	deceased	0.6518095608541773	27.04
TCGA-BB-A5HZ	182	censored	0.6518095608541773	27.17
TCGA-QK-A6V9	181	censored	0.6518095608541773	27.37
TCGA-HD-7832	180	censored	0.6518095608541773	27.46
TCGA-CN-4740	179	deceased	0.6481681666594612	27.56
TCGA-BA-A6D8	178	censored	0.6481681666594612	27.92
TCGA-CV-A45O	177	censored	0.6481681666594612	27.96
TCGA-CV-A6JT	176	censored	0.6481681666594612	27.99
TCGA-CN-6017	175	deceased	0.6444643485642643	28.02
TCGA-BA-A4IG	174	censored	0.6444643485642643	28.09
TCGA-CV-6960	173	deceased	0.6407391211159159	28.32
TCGA-HD-7753	172	censored	0.6407391211159159	28.45
TCGA-D6-A6EK	171	censored	0.6407391211159159	28.75
TCGA-P3-A6T5	170	deceased	0.6369700674622929	28.98
TCGA-CR-7373	169	censored	0.6369700674622929	29.2
TCGA-CQ-A4CB	168	censored	0.6369700674622929	29.34
TCGA-BA-A4IF	167	censored	0.6369700674622929	29.4
TCGA-CQ-A4CE	166	censored	0.6369700674622929	29.47
TCGA-CV-A6JN	165	censored	0.6369700674622929	29.76
TCGA-P3-A5Q5	164	censored	0.6369700674622929	29.89
TCGA-CR-7402	163	censored	0.6369700674622929	29.93
TCGA-CV-6951	162	deceased	0.6330381534656121	30.06
TCGA-BA-A4II	161	censored	0.6330381534656121	30.16
TCGA-CV-7568	160	deceased	0.629081665006452	30.45
TCGA-CN-6011	159	censored	0.629081665006452	30.65
TCGA-DQ-5629	158	deceased	0.6251001354810947	30.91
TCGA-F7-A50J	157	censored	0.6251001354810947	31.11
TCGA-CQ-A4CI	156	censored	0.6251001354810947	31.21
TCGA-CV-7243	155	censored	0.6251001354810947	31.34
TCGA-CN-A63U	154	censored	0.6251001354810947	31.67
TCGA-CR-7376	153	censored	0.6251001354810947	31.93
TCGA-CN-6989	152	deceased	0.6209876345897717	32.19
TCGA-CN-6997	151	deceased	0.6168751336984487	32.46
TCGA-UF-A7JT	150	deceased	0.6127626328071257	32.62
TCGA-CR-7393	149	censored	0.6127626328071257	32.62
TCGA-F7-8298	148	censored	0.6127626328071257	32.69
TCGA-CR-7385	147	censored	0.6127626328071257	32.75
TCGA-CN-4731	146	deceased	0.6085656284728304	32.79
TCGA-CQ-6221	145	censored	0.6085656284728304	32.85
TCGA-CQ-A4CD	144	censored	0.6085656284728304	33.57
TCGA-BB-7863	143	censored	0.6085656284728304	33.67
TCGA-HD-7229	142	censored	0.6085656284728304	33.74
TCGA-CV-7422	141	deceased	0.604249560185789	34.07
TCGA-CN-6019	140	censored	0.604249560185789	34.1
TCGA-CX-7219	139	censored	0.604249560185789	34.33
TCGA-CR-6472	138	censored	0.604249560185789	34.49
TCGA-HL-7533	137	censored	0.604249560185789	34.72
TCGA-CN-A497	136	censored	0.604249560185789	34.99
TCGA-CN-6992	135	censored	0.604249560185789	35.02
TCGA-CV-A6JE	134	censored	0.604249560185789	35.32
TCGA-CR-7401	133	censored	0.604249560185789	35.38
TCGA-CV-A45U	132	deceased	0.5996719120025633	35.45
TCGA-CV-7407	131	deceased	0.5950942638193376	35.51
TCGA-CR-7369	130	deceased	0.5905166156361119	35.81
TCGA-CV-7446	129	deceased	0.5859389674528862	35.91
TCGA-CV-7242	128	censored	0.5859389674528862	35.97
TCGA-BB-7862	127	censored	0.5859389674528862	36.7
TCGA-P3-A6SW	126	censored	0.5859389674528862	36.79
TCGA-F7-7848	125	censored	0.5859389674528862	37.16
TCGA-DQ-5625	124	deceased	0.5812136531992339	37.22
TCGA-BA-4077	123	deceased	0.5764883389455816	37.25
TCGA-IQ-A61H	122	censored	0.5764883389455816	37.39
TCGA-DQ-7592	121	censored	0.5764883389455816	37.55
TCGA-CR-5249	120	censored	0.5764883389455816	37.84
TCGA-BB-7872	119	censored	0.5764883389455816	38.37
TCGA-IQ-7631	118	censored	0.5764883389455816	38.5
TCGA-CN-6994	117	censored	0.5764883389455816	38.86
TCGA-DQ-7595	116	censored	0.5764883389455816	39.09
TCGA-CR-7365	115	censored	0.5764883389455816	39.13
TCGA-CR-6471	114	deceased	0.571431423691673	39.49
TCGA-DQ-7594	113	censored	0.571431423691673	40.01
TCGA-DQ-7593	112	censored	0.571431423691673	40.21
TCGA-CR-7368	111	censored	0.571431423691673	40.9
TCGA-DQ-7596	110	censored	0.571431423691673	41.56
TCGA-BA-7269	109	censored	0.571431423691673	41.82
TCGA-CQ-7069	108	censored	0.571431423691673	41.85
TCGA-CN-5355	107	censored	0.571431423691673	41.98
TCGA-BA-5152	106	censored	0.571431423691673	42.31
TCGA-CV-6948	105	deceased	0.5659892196565142	42.35
TCGA-CQ-7068	104	censored	0.5659892196565142	43
TCGA-CQ-7071	103	censored	0.5659892196565142	43.07
TCGA-CV-5979	102	censored	0.5659892196565142	43.2
TCGA-CR-7394	101	censored	0.5659892196565142	44.22
TCGA-CQ-A4C6	100	censored	0.5659892196565142	44.45
TCGA-UF-A7J9	99	censored	0.5659892196565142	44.61
TCGA-BB-7866	98	censored	0.5659892196565142	44.94
TCGA-CN-4739	97	deceased	0.5601542792476841	45.8
TCGA-CV-A45W	96	deceased	0.5543193388388541	45.93
TCGA-CQ-5331	95	censored	0.5543193388388541	45.96
TCGA-DQ-7589	94	censored	0.5543193388388541	46.29
TCGA-CN-5356	93	censored	0.5543193388388541	46.29
TCGA-DQ-7590	92	censored	0.5543193388388541	46.42
TCGA-CQ-6223	91	censored	0.5543193388388541	46.91
TCGA-P3-A6SX	90	deceased	0.5481602350739779	46.98
TCGA-CR-7386	89	censored	0.5481602350739779	46.98
TCGA-CR-7364	88	censored	0.5481602350739779	47.14
TCGA-CR-7367	87	censored	0.5481602350739779	47.31
TCGA-CN-6016	86	censored	0.5481602350739779	47.4
TCGA-CV-7254	85	deceased	0.5417112911319312	47.93
TCGA-CN-6012	84	censored	0.5417112911319312	47.96
TCGA-UF-A71D	83	censored	0.5417112911319312	48
TCGA-CV-A45Z	82	deceased	0.5351050558742246	48.16
TCGA-CQ-5323	81	censored	0.5351050558742246	48.16
TCGA-CR-7404	80	censored	0.5351050558742246	48.36
TCGA-CN-4722	79	censored	0.5351050558742246	48.72
TCGA-UF-A71B	78	censored	0.5351050558742246	49.47
TCGA-CR-7390	77	censored	0.5351050558742246	49.54
TCGA-CV-7261	76	censored	0.5351050558742246	49.67
TCGA-CR-6470	75	censored	0.5351050558742246	49.97
TCGA-CN-6010	74	censored	0.5351050558742246	50.03
TCGA-BB-7864	73	censored	0.5351050558742246	50.16
TCGA-CX-A4AQ	72	censored	0.5351050558742246	51.08
TCGA-P3-A5QE	71	censored	0.5351050558742246	51.22
TCGA-CN-4727	70	censored	0.5351050558742246	51.25
TCGA-CN-5373	69	censored	0.5351050558742246	52.04
TCGA-CN-6023	68	censored	0.5351050558742246	52.04
TCGA-CN-4733	67	censored	0.5351050558742246	52.1
TCGA-CV-7103	66	deceased	0.5269974035124939	52.27
TCGA-CQ-5324	65	censored	0.5269974035124939	52.33
TCGA-CQ-7065	64	censored	0.5269974035124939	53.48
TCGA-CV-6953	63	deceased	0.5186323653615019	53.91
TCGA-CR-5248	62	censored	0.5186323653615019	54.63
TCGA-UF-A719	61	censored	0.5186323653615019	54.63
TCGA-CV-6003	60	censored	0.5186323653615019	54.7
TCGA-CV-7428	59	deceased	0.5098419862875782	54.89
TCGA-UF-A7JF	58	censored	0.5098419862875782	55.39
TCGA-CN-4734	57	censored	0.5098419862875782	55.52
TCGA-CN-4723	56	censored	0.5098419862875782	55.81
TCGA-CV-7425	55	deceased	0.5005721319914403	56.44
TCGA-CQ-6224	54	censored	0.5005721319914403	56.54
TCGA-CV-A464	53	censored	0.5005721319914403	56.57
TCGA-CN-4728	52	censored	0.5005721319914403	56.64
TCGA-CN-5374	51	deceased	0.4907569921484709	56.9
TCGA-CN-4735	50	censored	0.4907569921484709	57.06
TCGA-CV-7406	49	deceased	0.48074154332911434	57.42
TCGA-BA-5153	48	deceased	0.4707260945097578	57.88
TCGA-CR-6467	47	censored	0.4707260945097578	58.38
TCGA-DQ-5624	46	censored	0.4707260945097578	58.41
TCGA-CV-A460	45	deceased	0.46026551463176313	60.38
TCGA-CV-6436	44	censored	0.46026551463176313	62.39
TCGA-UF-A718	43	censored	0.46026551463176313	64.75
TCGA-BA-5558	42	censored	0.46026551463176313	65.54
TCGA-CV-6954	41	deceased	0.4490395264700128	65.77
TCGA-BB-7870	40	censored	0.4490395264700128	66.23
TCGA-CQ-6222	39	censored	0.4490395264700128	66.23
TCGA-CV-A461	38	deceased	0.43722269682606507	67.81
TCGA-BA-5559	37	deceased	0.42540586718211737	68.43
TCGA-CN-5361	36	deceased	0.41358903753816967	69.65
TCGA-CQ-5329	35	censored	0.41358903753816967	70.4
TCGA-BB-8596	34	censored	0.41358903753816967	70.99
TCGA-CV-7178	33	deceased	0.4010560364006494	71.16
TCGA-CN-5360	32	censored	0.4010560364006494	71.25
TCGA-P3-A5QA	31	censored	0.4010560364006494	71.68
TCGA-CN-4741	30	censored	0.4010560364006494	73.55
TCGA-UF-A7JA	29	censored	0.4010560364006494	74.41
TCGA-P3-A6T2	28	censored	0.4010560364006494	75.49
TCGA-CV-5435	27	deceased	0.3862021091265513	76.18
TCGA-CV-5442	26	censored	0.3862021091265513	76.45
TCGA-CV-7235	25	censored	0.3862021091265513	77.1
TCGA-CQ-7072	24	censored	0.3862021091265513	77.5
TCGA-CV-5444	23	censored	0.3862021091265513	80.06
TCGA-CR-5243	22	censored	0.3862021091265513	84.17
TCGA-CV-7432	21	deceased	0.3678115325014774	84.43
TCGA-CV-5973	20	censored	0.3678115325014774	86.76
TCGA-CV-A45Y	19	deceased	0.3484530307908733	88.8
TCGA-CV-7411	18	deceased	0.3290945290802692	89.26
TCGA-CV-7238	17	censored	0.3290945290802692	89.59
TCGA-CV-6933	16	deceased	0.3085261210127524	90.05
TCGA-CV-5443	15	censored	0.3085261210127524	91.46
TCGA-CV-5441	14	censored	0.3085261210127524	94.81
TCGA-CV-7250	13	deceased	0.2847933424733099	95.27
TCGA-CV-7423	12	deceased	0.2610605639338674	100.49
TCGA-BB-4223	11	censored	0.2610605639338674	105.81
TCGA-CV-5434	10	deceased	0.23495450754048067	108.87
TCGA-CV-7091	9	censored	0.23495450754048067	111.07
TCGA-CV-5430	8	censored	0.23495450754048067	139.32
TCGA-CV-6942	7	censored	0.23495450754048067	140.67
TCGA-CV-7435	6	deceased	0.19579542295040056	153.75
TCGA-CV-7427	5	deceased	0.15663633836032045	156.37
TCGA-CV-A45Q	4	deceased	0.11747725377024035	169.25
TCGA-CV-7090	3	censored	0.11747725377024035	172.54
TCGA-CV-A45R	2	censored	0.11747725377024035	180.03
TCGA-CV-7410	1	deceased	0	210.81

Cases without Alteration(s) in Query Gene(s)
Case ID	Number at Risk	Status	Survival Rate	Time (months)
TCGA-BA-A6DG	70	deceased	0.9857142857142858	2.27
TCGA-CN-A642	69	deceased	0.9714285714285715	2.69
TCGA-T3-A92N	68	deceased	0.9571428571428573	3.12
TCGA-CV-6936	67	deceased	0.942857142857143	5.45
TCGA-BA-A6DD	66	deceased	0.9285714285714287	5.68
TCGA-CV-6952	65	deceased	0.9142857142857145	6.08
TCGA-C9-A47Z	64	deceased	0.9000000000000002	6.27
TCGA-CV-7438	63	deceased	0.8857142857142859	6.37
TCGA-CV-A6JO	62	deceased	0.8714285714285717	6.47
TCGA-CV-A465	61	deceased	0.8571428571428573	7.06
TCGA-BA-A6DB	60	censored	0.8571428571428573	7.1
TCGA-CN-A63T	59	censored	0.8571428571428573	7.39
TCGA-CV-7099	58	deceased	0.8423645320197046	7.98
TCGA-BB-A6UO	57	deceased	0.8275862068965518	8.8
TCGA-CV-7180	56	deceased	0.812807881773399	10.74
TCGA-BA-A6DI	55	deceased	0.7980295566502463	11.04
TCGA-CQ-5333	54	deceased	0.7832512315270936	11.2
TCGA-CN-5367	53	deceased	0.768472906403941	11.56
TCGA-CQ-A4C7	52	deceased	0.7536945812807883	11.6
TCGA-CR-6484	51	censored	0.7536945812807883	11.63
TCGA-D6-A4ZB	50	censored	0.7536945812807883	12.35
TCGA-CN-A63W	49	deceased	0.7383130592138334	12.39
TCGA-RS-A6TO	48	deceased	0.7229315371468785	12.71
TCGA-CV-7104	47	deceased	0.7075500150799237	12.91
TCGA-TN-A7HJ	46	censored	0.7075500150799237	13.24
TCGA-KU-A66S	45	deceased	0.6918266814114808	13.34
TCGA-MT-A51W	44	censored	0.6918266814114808	14.36
TCGA-CV-A468	43	deceased	0.6757376888205161	15.24
TCGA-CR-7383	42	deceased	0.6596486962295515	17.12
TCGA-CV-7409	41	deceased	0.6435597036385868	17.84
TCGA-UF-A7JC	40	deceased	0.6274707110476222	17.94
TCGA-F7-A61S	39	censored	0.6274707110476222	18.92
TCGA-CV-A6K0	38	censored	0.6274707110476222	19.91
TCGA-BA-A6DL	37	censored	0.6274707110476222	20.47
TCGA-UF-A7JO	36	deceased	0.6100409690740771	20.73
TCGA-QK-A652	35	censored	0.6100409690740771	21.19
TCGA-CQ-5325	34	deceased	0.5920985876307219	21.48
TCGA-F7-8489	33	censored	0.5920985876307219	21.62
TCGA-CR-6491	32	censored	0.5920985876307219	22.77
TCGA-D6-A74Q	31	censored	0.5920985876307219	23.32
TCGA-CV-A6JZ	30	censored	0.5920985876307219	23.46
TCGA-BA-5149	29	deceased	0.5716813949538004	26.48
TCGA-HD-7917	28	deceased	0.551264202276879	27.46
TCGA-UF-A7JH	27	censored	0.551264202276879	29.43
TCGA-CN-A49B	26	censored	0.551264202276879	29.7
TCGA-CR-7391	25	censored	0.551264202276879	29.99
TCGA-MT-A67A	24	censored	0.551264202276879	30.03
TCGA-CR-7395	23	censored	0.551264202276879	30.55
TCGA-CQ-6220	22	deceased	0.5262067385370209	32.36
TCGA-T2-A6X2	21	censored	0.5262067385370209	32.42
TCGA-IQ-A61J	20	censored	0.5262067385370209	33.54
TCGA-DQ-5630	19	censored	0.5262067385370209	33.84
TCGA-CR-7379	18	censored	0.5262067385370209	34.03
TCGA-CR-6473	17	censored	0.5262067385370209	36.96
TCGA-IQ-A61E	16	censored	0.5262067385370209	37.68
TCGA-CN-4725	15	censored	0.5262067385370209	38.01
TCGA-CQ-6229	14	censored	0.5262067385370209	38.73
TCGA-CQ-6218	13	censored	0.5262067385370209	41.16
TCGA-CR-7392	12	censored	0.5262067385370209	46.81
TCGA-CV-5976	11	censored	0.5262067385370209	48.55
TCGA-UF-A71E	10	deceased	0.4735860646833189	49.41
TCGA-CQ-5327	9	censored	0.4735860646833189	54.53
TCGA-CV-5977	8	censored	0.4735860646833189	60.45
TCGA-CQ-5330	7	censored	0.4735860646833189	62.32
TCGA-CV-7089	6	deceased	0.39465505390276573	64.78
TCGA-CQ-7063	5	censored	0.39465505390276573	70.07
TCGA-CV-5440	4	censored	0.39465505390276573	107.42
TCGA-CV-5432	3	censored	0.39465505390276573	129.11
TCGA-CV-7183	2	censored	0.39465505390276573	130.78
TCGA-CV-A45T	1	deceased	0	159.53
